<svg width="20" height="20" viewBox="0 0 20 20" fill="none" xmlns="http://www.w3.org/2000/svg">
<path d="M10 0L12.0706 2.27259L15 1.33975L15.6569 4.34315L18.6603 5L17.7274 7.92945L20 10L17.7274 12.0706L18.6603 15L15.6569 15.6569L15 18.6603L12.0706 17.7274L10 20L7.92945 17.7274L5 18.6603L4.34315 15.6569L1.33975 15L2.27259 12.0706L0 10L2.27259 7.92945L1.33975 5L4.34315 4.34315L5 1.33975L7.92945 2.27259L10 0Z" fill="#F28482"/>
<path d="M7.4 10.112C6.816 10.112 6.344 9.9 5.984 9.476C5.624 9.052 5.444 8.5 5.444 7.82C5.444 7.14 5.624 6.588 5.984 6.164C6.344 5.74 6.816 5.528 7.4 5.528C7.984 5.528 8.452 5.74 8.804 6.164C9.164 6.58 9.344 7.132 9.344 7.82C9.344 8.508 9.164 9.064 8.804 9.488C8.452 9.904 7.984 10.112 7.4 10.112ZM12.464 5.6H13.388L7.652 14H6.728L12.464 5.6ZM7.4 9.428C7.768 9.428 8.056 9.288 8.264 9.008C8.472 8.72 8.576 8.324 8.576 7.82C8.576 7.316 8.472 6.924 8.264 6.644C8.056 6.356 7.768 6.212 7.4 6.212C7.04 6.212 6.752 6.356 6.536 6.644C6.328 6.932 6.224 7.324 6.224 7.82C6.224 8.316 6.328 8.708 6.536 8.996C6.752 9.284 7.04 9.428 7.4 9.428ZM12.716 14.072C12.132 14.072 11.66 13.864 11.3 13.448C10.948 13.024 10.772 12.468 10.772 11.78C10.772 11.092 10.948 10.54 11.3 10.124C11.66 9.7 12.132 9.488 12.716 9.488C13.3 9.488 13.772 9.7 14.132 10.124C14.492 10.548 14.672 11.1 14.672 11.78C14.672 12.46 14.492 13.012 14.132 13.436C13.772 13.86 13.3 14.072 12.716 14.072ZM12.716 13.388C13.076 13.388 13.36 13.244 13.568 12.956C13.784 12.668 13.892 12.276 13.892 11.78C13.892 11.284 13.784 10.892 13.568 10.604C13.36 10.316 13.076 10.172 12.716 10.172C12.348 10.172 12.06 10.316 11.852 10.604C11.644 10.884 11.54 11.276 11.54 11.78C11.54 12.284 11.644 12.68 11.852 12.968C12.06 13.248 12.348 13.388 12.716 13.388Z" fill="white"/>
</svg>
