<svg width="16" height="18" viewBox="0 0 16 18" fill="none" xmlns="http://www.w3.org/2000/svg">
<path d="M15.625 12.5867C15.625 12.9165 15.4427 13.203 15.1649 13.3506L8.30729 17.2047C8.1684 17.3089 7.99479 17.361 7.8125 17.361C7.63021 17.361 7.4566 17.3089 7.31771 17.2047L0.460069 13.3506C0.182292 13.203 0 12.9165 0 12.5867V4.77418C0 4.44432 0.182292 4.15786 0.460069 4.01029L7.31771 0.156128C7.4566 0.0519613 7.63021 -0.00012207 7.8125 -0.00012207C7.99479 -0.00012207 8.1684 0.0519613 8.30729 0.156128L15.1649 4.01029C15.4427 4.15786 15.625 4.44432 15.625 4.77418V12.5867ZM7.8125 1.8662L6.17188 2.79502L11.2847 5.73772L12.9861 4.77418L7.8125 1.8662ZM2.63889 4.77418L7.8125 7.68217L9.51389 6.72731L4.40972 3.77592L2.63889 4.77418ZM1.73611 12.0745L6.94444 15.0086V9.18391L1.73611 6.25856V12.0745ZM13.8889 12.0745V6.25856L8.68056 9.18391V15.0086L13.8889 12.0745Z" fill="white"/>
</svg>
