<svg width="21" height="20" viewBox="0 0 21 20" fill="none" xmlns="http://www.w3.org/2000/svg">
<path d="M0.509512 8.96C0.00963645 8.68 -0.140326 8.07 0.139604 7.59L1.63923 5C1.7492 4.8 1.91916 4.66 2.10911 4.58L9.93717 0.18C10.0971 0.0600001 10.2971 0 10.507 0C10.717 0 10.9169 0.0600001 11.0769 0.18L18.9749 4.62C19.1649 4.72 19.3248 4.88 19.4148 5.08L20.8645 7.6C21.1444 8.08 20.9744 8.69 20.5045 8.96L19.5048 9.54V14.5C19.5048 14.88 19.2948 15.21 18.9749 15.38L11.0769 19.82C10.9169 19.94 10.717 20 10.507 20C10.2971 20 10.0971 19.94 9.93717 19.82L2.03913 15.38C1.71921 15.21 1.50926 14.88 1.50926 14.5V8.96C1.20934 9.13 0.829433 9.14 0.509512 8.96ZM10.507 2.15V8.85L16.4655 5.5L10.507 2.15ZM3.50877 13.91L9.50728 17.29V10.58L3.50877 7.21V13.91ZM17.5053 13.91V10.69L12.5065 13.59C12.1766 13.77 11.8067 13.76 11.5068 13.6V17.29L17.5053 13.91ZM12.3566 11.36L18.635 7.73L18.0552 6.72L11.7767 10.35L12.3566 11.36Z" fill="#444444"/>
</svg>
