<svg width="230" height="148" viewBox="0 0 230 148" fill="none" xmlns="http://www.w3.org/2000/svg">
<mask id="path-1-outside-1" maskUnits="userSpaceOnUse" x="6.6643" y="68" width="204" height="80" fill="black">
<rect fill="white" x="6.6643" y="68" width="204" height="80"/>
<path d="M204.859 90.2617C204.859 88.7847 205.048 90.8385 205.266 92.4773C205.316 93.0331 205.416 93.586 205.564 94.1322C205.651 94.2454 205.76 93.7656 205.775 92.1862C205.928 93.5342 205.984 94.8874 205.942 96.2399C205.942 97.8031 205.818 99.5281 205.688 101.291C205.411 104.816 204.924 108.471 204.684 111.236C205.062 111.587 205.571 110.552 205.92 110.665C206.102 110.724 206.24 111.075 206.305 112.034C206.371 112.994 206.305 114.562 206.102 117.064C205.884 118.729 205.688 120.001 205.513 120.977C205.383 121.691 205.203 122.4 204.975 123.101C204.648 124.044 204.386 124.179 204.124 124.281C203.572 124.465 203.085 124.481 201.689 130.324L202.496 126.303C202.75 124.961 202.961 123.608 203.223 122.271C202.852 123.257 202.496 124.427 202.118 125.726C201.74 127.025 201.304 128.47 200.889 130.039L199.501 134.982L198.105 139.677L197.843 140.518L197.778 140.733C197.715 140.729 197.654 140.718 197.596 140.701L197.225 140.62C197.101 140.593 196.963 140.561 196.847 140.539L195.168 140.2C193.837 139.909 192.485 139.661 191.147 139.445C185.724 138.496 180.424 137.86 175.604 137.375C160.94 136.836 147.977 138.405 129.416 138.173C130.441 138.265 135.014 138.475 134.098 138.798C130.681 139.105 124.647 138.96 121.099 138.841C111.379 138.141 123.818 137.871 120.161 137.327C112.055 136.982 104.414 136.464 93.0219 136.788L78.8669 138.011C69.4157 136.227 54.3519 137.715 35.1951 136.777C33.4512 137.005 31.6758 137.072 29.9097 136.976C27.5832 136.906 24.8642 136.572 22.9739 135.521C21.0837 134.47 19.7387 132.728 18.7863 131.208C18.3065 130.443 17.9139 129.71 17.5431 129.111C17.2684 128.642 16.9476 128.188 16.5834 127.753C15.2966 124.653 14.5406 124.459 13.5736 124.47C12.6067 124.481 11.5889 124.675 10.4111 122.001L9.59685 119.543C9.42963 119.058 9.33513 118.875 9.28424 118.891C9.25081 119.466 9.29463 120.042 9.41508 120.611C9.55521 121.179 9.6161 121.757 9.59685 122.336C9.55322 122.336 9.45145 122.174 9.26242 121.683C9.07339 121.193 8.79713 120.4 8.46271 119.198C8.65495 120.959 9.1862 122.691 10.0403 124.341C10.4845 125.064 11.0781 125.732 11.7997 126.319C12.677 127.087 13.4106 127.939 13.9807 128.853L14.7078 129.985L15.5802 131.424C16.3671 132.795 17.3415 134.103 18.4883 135.327C18.1756 135.203 17.863 135.068 17.5649 134.922C18.1311 135.672 18.8413 136.357 19.6733 136.955C20.6438 137.64 21.7746 138.188 23.0103 138.572C25.5766 139.375 28.3539 139.488 30.8475 139.521C35.7694 139.531 40.3787 139.574 42.9887 140.07C62.9743 140.227 42.6833 138.814 52.5053 138.254C58.1978 139.1 80.8008 139.618 81.5859 140.706L66.0569 140.523C68.5724 140.583 66.6239 140.787 67.649 140.895C73.0217 140.442 82.7564 141.343 90.1865 141.925C97.6166 142.507 102.677 142.766 98.729 141.186C96.6715 140.987 91.1898 141.057 89.5831 140.696C90.3828 139.957 101.012 140.405 109.009 140.345C117.217 141.149 126.646 142.394 139.507 141.919C143.942 141.72 141.318 141.272 145.752 141.078C152.295 141.31 157.094 141.45 161.071 141.558C165.047 141.666 168.203 141.688 171.401 141.785C174.925 141.867 178.441 142.082 181.936 142.426C182.961 142.528 184.044 142.636 185.186 142.803C186.327 142.971 187.548 143.105 188.821 143.342C190.093 143.58 191.467 143.784 192.899 144.097C193.626 144.253 194.353 144.41 195.124 144.577C196.171 144.793 197.203 145.062 198.301 145.337C198.963 145.461 199.595 145.59 200.322 145.725L201.289 145.925C201.447 145.964 201.61 145.99 201.776 146L201.878 145.601L202.692 142.496L203.114 140.976L203.325 140.227L203.477 139.591L204.124 137.046C204.997 133.602 205.804 130.109 206.545 126.594C208.013 119.786 208.759 112.902 208.777 106.008C209.141 106.999 209.432 104.886 209.577 102.191C209.621 100.843 209.657 99.3556 209.664 98.0349L209.584 94.9246C209.417 94.0082 209.119 91.7927 208.901 89.1675C208.683 86.5423 208.407 83.5236 208.312 80.9846C208.508 83.9764 207.978 82.1705 207.898 84.2621C207.803 81.4051 207.643 79.1303 207.352 77.3244C207.214 76.4242 207.076 75.6372 206.931 74.9526C206.785 74.268 206.596 73.6858 206.436 73.1899C205.767 71.1954 205.128 70.5647 204.677 70.2844C204.822 72.4837 204.888 74.1871 204.837 75.6749L204.684 79.6963C204.597 81.0062 204.546 82.3592 204.597 84.0087C204.597 84.8443 204.597 85.7553 204.677 86.7795L204.859 90.2617Z"/>
</mask>
<path d="M204.859 90.2617C204.859 88.7847 205.048 90.8385 205.266 92.4773C205.316 93.0331 205.416 93.586 205.564 94.1322C205.651 94.2454 205.76 93.7656 205.775 92.1862C205.928 93.5342 205.984 94.8874 205.942 96.2399C205.942 97.8031 205.818 99.5281 205.688 101.291C205.411 104.816 204.924 108.471 204.684 111.236C205.062 111.587 205.571 110.552 205.92 110.665C206.102 110.724 206.24 111.075 206.305 112.034C206.371 112.994 206.305 114.562 206.102 117.064C205.884 118.729 205.688 120.001 205.513 120.977C205.383 121.691 205.203 122.4 204.975 123.101C204.648 124.044 204.386 124.179 204.124 124.281C203.572 124.465 203.085 124.481 201.689 130.324L202.496 126.303C202.75 124.961 202.961 123.608 203.223 122.271C202.852 123.257 202.496 124.427 202.118 125.726C201.74 127.025 201.304 128.47 200.889 130.039L199.501 134.982L198.105 139.677L197.843 140.518L197.778 140.733C197.715 140.729 197.654 140.718 197.596 140.701L197.225 140.62C197.101 140.593 196.963 140.561 196.847 140.539L195.168 140.2C193.837 139.909 192.485 139.661 191.147 139.445C185.724 138.496 180.424 137.86 175.604 137.375C160.94 136.836 147.977 138.405 129.416 138.173C130.441 138.265 135.014 138.475 134.098 138.798C130.681 139.105 124.647 138.96 121.099 138.841C111.379 138.141 123.818 137.871 120.161 137.327C112.055 136.982 104.414 136.464 93.0219 136.788L78.8669 138.011C69.4157 136.227 54.3519 137.715 35.1951 136.777C33.4512 137.005 31.6758 137.072 29.9097 136.976C27.5832 136.906 24.8642 136.572 22.9739 135.521C21.0837 134.47 19.7387 132.728 18.7863 131.208C18.3065 130.443 17.9139 129.71 17.5431 129.111C17.2684 128.642 16.9476 128.188 16.5834 127.753C15.2966 124.653 14.5406 124.459 13.5736 124.47C12.6067 124.481 11.5889 124.675 10.4111 122.001L9.59685 119.543C9.42963 119.058 9.33513 118.875 9.28424 118.891C9.25081 119.466 9.29463 120.042 9.41508 120.611C9.55521 121.179 9.6161 121.757 9.59685 122.336C9.55322 122.336 9.45145 122.174 9.26242 121.683C9.07339 121.193 8.79713 120.4 8.46271 119.198C8.65495 120.959 9.1862 122.691 10.0403 124.341C10.4845 125.064 11.0781 125.732 11.7997 126.319C12.677 127.087 13.4106 127.939 13.9807 128.853L14.7078 129.985L15.5802 131.424C16.3671 132.795 17.3415 134.103 18.4883 135.327C18.1756 135.203 17.863 135.068 17.5649 134.922C18.1311 135.672 18.8413 136.357 19.6733 136.955C20.6438 137.64 21.7746 138.188 23.0103 138.572C25.5766 139.375 28.3539 139.488 30.8475 139.521C35.7694 139.531 40.3787 139.574 42.9887 140.07C62.9743 140.227 42.6833 138.814 52.5053 138.254C58.1978 139.1 80.8008 139.618 81.5859 140.706L66.0569 140.523C68.5724 140.583 66.6239 140.787 67.649 140.895C73.0217 140.442 82.7564 141.343 90.1865 141.925C97.6166 142.507 102.677 142.766 98.729 141.186C96.6715 140.987 91.1898 141.057 89.5831 140.696C90.3828 139.957 101.012 140.405 109.009 140.345C117.217 141.149 126.646 142.394 139.507 141.919C143.942 141.72 141.318 141.272 145.752 141.078C152.295 141.31 157.094 141.45 161.071 141.558C165.047 141.666 168.203 141.688 171.401 141.785C174.925 141.867 178.441 142.082 181.936 142.426C182.961 142.528 184.044 142.636 185.186 142.803C186.327 142.971 187.548 143.105 188.821 143.342C190.093 143.58 191.467 143.784 192.899 144.097C193.626 144.253 194.353 144.41 195.124 144.577C196.171 144.793 197.203 145.062 198.301 145.337C198.963 145.461 199.595 145.59 200.322 145.725L201.289 145.925C201.447 145.964 201.61 145.99 201.776 146L201.878 145.601L202.692 142.496L203.114 140.976L203.325 140.227L203.477 139.591L204.124 137.046C204.997 133.602 205.804 130.109 206.545 126.594C208.013 119.786 208.759 112.902 208.777 106.008C209.141 106.999 209.432 104.886 209.577 102.191C209.621 100.843 209.657 99.3556 209.664 98.0349L209.584 94.9246C209.417 94.0082 209.119 91.7927 208.901 89.1675C208.683 86.5423 208.407 83.5236 208.312 80.9846C208.508 83.9764 207.978 82.1705 207.898 84.2621C207.803 81.4051 207.643 79.1303 207.352 77.3244C207.214 76.4242 207.076 75.6372 206.931 74.9526C206.785 74.268 206.596 73.6858 206.436 73.1899C205.767 71.1954 205.128 70.5647 204.677 70.2844C204.822 72.4837 204.888 74.1871 204.837 75.6749L204.684 79.6963C204.597 81.0062 204.546 82.3592 204.597 84.0087C204.597 84.8443 204.597 85.7553 204.677 86.7795L204.859 90.2617Z" fill="#F7EDE2"/>
<path d="M204.859 90.2617C204.859 88.7847 205.048 90.8385 205.266 92.4773C205.316 93.0331 205.416 93.586 205.564 94.1322C205.651 94.2454 205.76 93.7656 205.775 92.1862C205.928 93.5342 205.984 94.8874 205.942 96.2399C205.942 97.8031 205.818 99.5281 205.688 101.291C205.411 104.816 204.924 108.471 204.684 111.236C205.062 111.587 205.571 110.552 205.92 110.665C206.102 110.724 206.24 111.075 206.305 112.034C206.371 112.994 206.305 114.562 206.102 117.064C205.884 118.729 205.688 120.001 205.513 120.977C205.383 121.691 205.203 122.4 204.975 123.101C204.648 124.044 204.386 124.179 204.124 124.281C203.572 124.465 203.085 124.481 201.689 130.324L202.496 126.303C202.75 124.961 202.961 123.608 203.223 122.271C202.852 123.257 202.496 124.427 202.118 125.726C201.74 127.025 201.304 128.47 200.889 130.039L199.501 134.982L198.105 139.677L197.843 140.518L197.778 140.733C197.715 140.729 197.654 140.718 197.596 140.701L197.225 140.62C197.101 140.593 196.963 140.561 196.847 140.539L195.168 140.2C193.837 139.909 192.485 139.661 191.147 139.445C185.724 138.496 180.424 137.86 175.604 137.375C160.94 136.836 147.977 138.405 129.416 138.173C130.441 138.265 135.014 138.475 134.098 138.798C130.681 139.105 124.647 138.96 121.099 138.841C111.379 138.141 123.818 137.871 120.161 137.327C112.055 136.982 104.414 136.464 93.0219 136.788L78.8669 138.011C69.4157 136.227 54.3519 137.715 35.1951 136.777C33.4512 137.005 31.6758 137.072 29.9097 136.976C27.5832 136.906 24.8642 136.572 22.9739 135.521C21.0837 134.47 19.7387 132.728 18.7863 131.208C18.3065 130.443 17.9139 129.71 17.5431 129.111C17.2684 128.642 16.9476 128.188 16.5834 127.753C15.2966 124.653 14.5406 124.459 13.5736 124.47C12.6067 124.481 11.5889 124.675 10.4111 122.001L9.59685 119.543C9.42963 119.058 9.33513 118.875 9.28424 118.891C9.25081 119.466 9.29463 120.042 9.41508 120.611C9.55521 121.179 9.6161 121.757 9.59685 122.336C9.55322 122.336 9.45145 122.174 9.26242 121.683C9.07339 121.193 8.79713 120.4 8.46271 119.198C8.65495 120.959 9.1862 122.691 10.0403 124.341C10.4845 125.064 11.0781 125.732 11.7997 126.319C12.677 127.087 13.4106 127.939 13.9807 128.853L14.7078 129.985L15.5802 131.424C16.3671 132.795 17.3415 134.103 18.4883 135.327C18.1756 135.203 17.863 135.068 17.5649 134.922C18.1311 135.672 18.8413 136.357 19.6733 136.955C20.6438 137.64 21.7746 138.188 23.0103 138.572C25.5766 139.375 28.3539 139.488 30.8475 139.521C35.7694 139.531 40.3787 139.574 42.9887 140.07C62.9743 140.227 42.6833 138.814 52.5053 138.254C58.1978 139.1 80.8008 139.618 81.5859 140.706L66.0569 140.523C68.5724 140.583 66.6239 140.787 67.649 140.895C73.0217 140.442 82.7564 141.343 90.1865 141.925C97.6166 142.507 102.677 142.766 98.729 141.186C96.6715 140.987 91.1898 141.057 89.5831 140.696C90.3828 139.957 101.012 140.405 109.009 140.345C117.217 141.149 126.646 142.394 139.507 141.919C143.942 141.72 141.318 141.272 145.752 141.078C152.295 141.31 157.094 141.45 161.071 141.558C165.047 141.666 168.203 141.688 171.401 141.785C174.925 141.867 178.441 142.082 181.936 142.426C182.961 142.528 184.044 142.636 185.186 142.803C186.327 142.971 187.548 143.105 188.821 143.342C190.093 143.58 191.467 143.784 192.899 144.097C193.626 144.253 194.353 144.41 195.124 144.577C196.171 144.793 197.203 145.062 198.301 145.337C198.963 145.461 199.595 145.59 200.322 145.725L201.289 145.925C201.447 145.964 201.61 145.99 201.776 146L201.878 145.601L202.692 142.496L203.114 140.976L203.325 140.227L203.477 139.591L204.124 137.046C204.997 133.602 205.804 130.109 206.545 126.594C208.013 119.786 208.759 112.902 208.777 106.008C209.141 106.999 209.432 104.886 209.577 102.191C209.621 100.843 209.657 99.3556 209.664 98.0349L209.584 94.9246C209.417 94.0082 209.119 91.7927 208.901 89.1675C208.683 86.5423 208.407 83.5236 208.312 80.9846C208.508 83.9764 207.978 82.1705 207.898 84.2621C207.803 81.4051 207.643 79.1303 207.352 77.3244C207.214 76.4242 207.076 75.6372 206.931 74.9526C206.785 74.268 206.596 73.6858 206.436 73.1899C205.767 71.1954 205.128 70.5647 204.677 70.2844C204.822 72.4837 204.888 74.1871 204.837 75.6749L204.684 79.6963C204.597 81.0062 204.546 82.3592 204.597 84.0087C204.597 84.8443 204.597 85.7553 204.677 86.7795L204.859 90.2617Z" stroke="#F7EDE2" stroke-width="2" mask="url(#path-1-outside-1)"/>
<path d="M19.8771 4.06319C17.479 3.70243 15.0504 3.46492 12.6086 3.35233L12.6064 3.35222C11.3634 3.30056 10.1176 3.30042 8.87464 3.3518C8.34346 3.35242 7.80927 3.40023 7.29718 3.44606C7.18295 3.45628 7.06981 3.4664 6.95806 3.47588C6.69906 3.47795 6.42389 3.51549 6.18913 3.54752C6.11086 3.55819 6.0371 3.56825 5.96994 3.57618C5.96974 3.57621 5.96955 3.57623 5.96935 3.57625L5.52011 3.62672L5.30819 3.62672L5.30798 3.62672L5.30776 3.62672L5.30755 3.62672L5.30734 3.62672L5.30712 3.62672L5.3069 3.62672L5.30668 3.62672L5.30647 3.62672L5.30625 3.62672L5.30603 3.62672L5.30581 3.62672L5.30559 3.62672L5.30537 3.62672L5.30515 3.62672L5.30493 3.62672L5.3047 3.62672L5.30448 3.62672L5.30425 3.62672L5.30403 3.62672L5.3038 3.62672L5.30358 3.62672L5.30335 3.62672L5.30313 3.62672L5.3029 3.62672L5.30267 3.62672L5.30244 3.62672L5.30221 3.62672L5.30198 3.62672L5.30175 3.62672L5.30152 3.62672L5.30129 3.62672L5.30106 3.62672L5.30082 3.62672L5.30059 3.62672L5.30036 3.62672L5.30013 3.62672L5.29989 3.62672L5.29965 3.62672L5.29942 3.62672L5.29918 3.62672L5.29894 3.62672L5.29871 3.62672L5.29847 3.62672L5.29823 3.62672L5.298 3.62672L5.29775 3.62672L5.29752 3.62672L5.29728 3.62672L5.29704 3.62672L5.29679 3.62672L5.29656 3.62672L5.29631 3.62672L5.29607 3.62672L5.29583 3.62672L5.29559 3.62672L5.29534 3.62672L5.2951 3.62672L5.29486 3.62672L5.29461 3.62672L5.29437 3.62672L5.29412 3.62672L5.29387 3.62672L5.29363 3.62672L5.29338 3.62672L5.29313 3.62672L5.29289 3.62672L5.29263 3.62672L5.29239 3.62672L5.29214 3.62672L5.29189 3.62672L5.29164 3.62672L5.29139 3.62672L5.29114 3.62672L5.29089 3.62672L5.29064 3.62672L5.29039 3.62672L5.29014 3.62672L5.28989 3.62672L5.28964 3.62672L5.28938 3.62672L5.28913 3.62672L5.28887 3.62672L5.28862 3.62672L5.28837 3.62672L5.28811 3.62672L5.28786 3.62672L5.28761 3.62672L5.28735 3.62672L5.2871 3.62672L5.28684 3.62672L5.28658 3.62672L5.28633 3.62672L5.28607 3.62672L5.28581 3.62672L5.28555 3.62672L5.2853 3.62672L5.28504 3.62672L5.28478 3.62672L5.28452 3.62672L5.28427 3.62672L5.28401 3.62672L5.28375 3.62672L5.28349 3.62672L5.28323 3.62672L5.28297 3.62672L5.28271 3.62672L5.28245 3.62672L5.28219 3.62672L5.28193 3.62672L5.28167 3.62672L5.28141 3.62672L5.28115 3.62672L5.28089 3.62672L5.28063 3.62672L5.28037 3.62672L5.2801 3.62672L5.27984 3.62672L5.27958 3.62672L5.27931 3.62672L5.27905 3.62672L5.2788 3.62672L5.27853 3.62672L5.27827 3.62672L5.278 3.62672L5.27774 3.62672L5.27748 3.62672L5.27722 3.62672L5.27695 3.62672L5.27669 3.62672L5.27642 3.62672L5.27616 3.62672L5.2759 3.62672L5.27563 3.62672L5.27536 3.62672L5.2751 3.62672L5.27484 3.62672L5.27458 3.62672L5.27431 3.62672L5.27404 3.62672L5.27378 3.62672L5.27352 3.62672L5.27325 3.62672L5.27298 3.62672L5.27272 3.62672L5.27246 3.62672L5.27219 3.62672L5.27192 3.62672L5.27166 3.62672L5.27139 3.62672L5.27113 3.62672L5.27086 3.62672L5.27059 3.62672L5.27033 3.62672L5.27007 3.62672L5.2698 3.62672L5.26953 3.62672L5.26927 3.62672L5.26901 3.62672L5.26874 3.62672L5.26847 3.62672L5.26821 3.62672L5.26795 3.62672L5.26768 3.62672L5.26741 3.62672L5.26715 3.62672L5.26688 3.62672L5.26662 3.62672L5.26635 3.62672L5.26608 3.62672L5.26582 3.62672L5.26556 3.62672L5.26529 3.62672L5.26502 3.62672L5.26476 3.62672L5.2645 3.62672L5.26423 3.62672L5.26396 3.62672L5.2637 3.62672L5.26344 3.62672L5.26317 3.62672L5.26291 3.62672L5.26264 3.62672L5.26238 3.62672L5.26212 3.62672L5.26185 3.62672L5.26159 3.62672L5.26132 3.62672L5.26106 3.62672L5.2608 3.62672L5.26053 3.62672L5.26027 3.62672L5.26001 3.62672L5.25974 3.62672L5.25949 3.62672L5.25922 3.62672L5.25896 3.62672L5.25869 3.62672L5.25843 3.62672L5.25817 3.62672L5.25791 3.62672L5.25765 3.62672L5.25739 3.62672L5.25713 3.62672L5.25686 3.62672L5.2566 3.62672L5.25634 3.62672L5.25608 3.62672L5.25582 3.62672L5.25556 3.62672L5.2553 3.62672L5.25504 3.62672L5.25479 3.62672L5.25453 3.62672L5.25427 3.62672L5.25401 3.62672L5.25375 3.62672L5.25349 3.62672L5.25324 3.62672L5.25298 3.62672L5.25272 3.62672L5.25246 3.62672L5.25221 3.62672L5.25195 3.62672L5.25169 3.62672L5.25144 3.62672L5.25118 3.62672L5.25093 3.62672L5.25067 3.62672L5.25041 3.62672L5.25016 3.62672L5.2499 3.62672L5.24965 3.62672L5.2494 3.62672L5.24915 3.62672L5.2489 3.62672L5.24864 3.62672L5.24838 3.62672L5.24813 3.62672L5.24788 3.62672L5.24763 3.62672L5.24738 3.62672L5.24713 3.62672L5.24688 3.62672L5.24663 3.62672L5.24638 3.62672L5.24613 3.62672L5.24588 3.62672L5.24564 3.62672L5.24539 3.62672L5.24514 3.62672L5.24489 3.62672L5.24465 3.62672L5.2444 3.62672L5.24415 3.62672L5.24391 3.62672L5.24366 3.62672L5.24342 3.62672L5.24317 3.62672L5.24293 3.62672L5.24269 3.62672L5.24244 3.62672L5.2422 3.62672L5.24196 3.62672L5.24172 3.62672L5.24147 3.62672L5.24124 3.62672L5.24099 3.62672L5.24076 3.62672L5.24052 3.62672L5.24027 3.62672L5.24004 3.62672L5.2398 3.62672L5.23956 3.62672L5.23933 3.62672L5.23909 3.62672L5.23886 3.62672L5.23862 3.62672L5.23838 3.62672L5.23815 3.62672L5.23792 3.62672L5.23768 3.62672L5.23744 3.62672L5.23721 3.62672L5.23699 3.62672L5.23675 3.62672L5.23652 3.62672L5.23629 3.62672L5.23606 3.62672L5.23583 3.62672L5.23561 3.62672L5.23538 3.62672L5.23515 3.62672L5.23492 3.62672L5.23469 3.62672L5.23447 3.62672L5.23424 3.62672L5.23402 3.62672L5.2338 3.62672L5.23357 3.62672L5.23335 3.62672L5.23313 3.62672L5.2329 3.62672L5.23268 3.62672L5.23246 3.62672L5.23224 3.62672L5.23202 3.62672L5.23181 3.62672L5.23158 3.62672L5.23137 3.62672L5.23115 3.62672L5.23094 3.62672L5.23072 3.62672L5.23051 3.62672L5.2303 3.62672L5.23008 3.62672L5.22987 3.62672L5.22965 3.62672L5.22944 3.62672L5.22923 3.62672L5.22902 3.62672L5.22882 3.62672L5.2286 3.62672L5.2284 3.62672L5.22819 3.62672L5.22798 3.62672L5.22778 3.62672L5.22757 3.62672L5.22737 3.62672L5.22716 3.62672L5.22696 3.62672L5.22676 3.62672L5.22656 3.62672L5.22636 3.62672L5.22615 3.62672L5.22595 3.62672L5.22576 3.62672L5.22556 3.62672L5.22537 3.62672L5.22517 3.62672L5.22497 3.62672L5.22478 3.62672L5.22458 3.62672L5.22439 3.62672L5.2242 3.62672L5.22401 3.62672L5.22382 3.62672L5.22363 3.62672L5.22344 3.62672L5.22325 3.62672L5.22306 3.62672L5.22287 3.62672L5.22269 3.62672L5.2225 3.62672L5.22231 3.62672L5.22213 3.62672L5.22195 3.62672L5.22177 3.62672L5.22159 3.62672L5.22141 3.62672L5.22123 3.62672L5.22105 3.62672L5.22087 3.62672L5.2207 3.62672L5.22052 3.62672L5.22035 3.62672L5.22017 3.62672L5.22 3.62672L5.21983 3.62672L5.21965 3.62672L5.21948 3.62672L5.21932 3.62672L5.21915 3.62672L5.21898 3.62672L5.21881 3.62672L5.21865 3.62672L5.21848 3.62672L5.21832 3.62672L5.21815 3.62672L5.21799 3.62672L5.21783 3.62672L5.21767 3.62672L5.21751 3.62672L5.21735 3.62672L5.2172 3.62672L5.21704 3.62672L5.21688 3.62672L5.21672 3.62672L5.21657 3.62672L5.21642 3.62672L5.21626 3.62672L5.21612 3.62672L5.21597 3.62672L5.21581 3.62672L5.21567 3.62672L5.21552 3.62672L5.21538 3.62672L5.21523 3.62672L5.21509 3.62672L5.21494 3.62672L5.21481 3.62672L5.21466 3.62672L5.21453 3.62672L5.21439 3.62672L5.21425 3.62672L5.21411 3.62672L5.21398 3.62672L5.21384 3.62672L5.21371 3.62672L5.21357 3.62672L5.21344 3.62672L5.21331 3.62672L5.21318 3.62672L5.21305 3.62672L5.21293 3.62672L5.2128 3.62672L5.21268 3.62672L5.21256 3.62672L5.21243 3.62672L5.21231 3.62672L5.21219 3.62672L5.21207 3.62672L5.21195 3.62672L5.21183 3.62672L5.21172 3.62672L5.2116 3.62672L5.21149 3.62672L5.21137 3.62672L5.21127 3.62672L5.21115 3.62672L5.21105 3.62672L5.21094 3.62672L5.21083 3.62672L5.21073 3.62672L5.21062 3.62672L5.21052 3.62672L5.21041 3.62672L5.21031 3.62672L5.21021 3.62672L5.21012 3.62672L5.21002 3.62672L5.20992 3.62672L5.20983 3.62672L5.20973 3.62672L5.20964 3.62672L5.20955 3.62672L5.20946 3.62672L5.20937 3.62672L5.20928 3.62672L5.2092 3.62672L5.20911 3.62672L5.20902 3.62672L5.20894 3.62672L5.20886 3.62672L5.20878 3.62672L5.2087 3.62672L5.20863 3.62672L5.20855 3.62672L5.20848 3.62672L5.2084 3.62672L5.20832 3.62672L5.20825 3.62672L5.20819 3.62672L5.20812 3.62672L5.20805 3.62672L5.20798 3.62672L5.20792 3.62672L5.20785 3.62672L5.20779 3.62672L5.20773 3.62672L5.20761 3.62672L5.20755 3.62672L5.20745 3.62672L5.20734 3.62672L5.20724 3.62672L5.20714 3.62672L5.20706 3.62672L5.20697 3.62672L5.2069 3.62672L5.20682 3.62672L5.20676 3.62672L5.20667 3.62672L5.20659 3.62672L5.20652 3.62672L5.20646 3.62672L5.2064 3.62672L4.7064 3.62672L4.7064 4.12672L4.7064 4.22915L4.7064 4.23153L4.7573 14.8755C4.7573 14.8757 4.7573 14.876 4.7573 14.8763C4.7573 21.6904 4.75728 28.252 4.66284 34.4841L5.35943 34.5684C5.67192 40.5889 5.05627 44.8774 4.54487 48.2673L4.35189 48.277L4.02472 52.2121L4.523 52.2535L4.79973 52.2765C4.92182 54.2103 4.95005 56.3444 4.94269 58.5419C4.93841 59.8223 4.92202 61.1248 4.90574 62.4179C4.87395 64.9437 4.84262 67.4333 4.90289 69.6516L4.90382 69.6857L4.90938 69.7194C5.086 70.7902 5.26244 71.8065 5.435 72.8004C6.43542 78.5628 7.30513 83.5724 7.32366 94.0743L7.32529 94.9966L8.07449 94.5068L8.87411 103.642L9.65971 103.608L9.95707 104.528L10.3613 102.756C10.4615 102.316 10.4578 101.947 10.4124 101.483C10.3936 101.29 10.3668 101.075 10.3365 100.83C10.3316 100.791 10.3267 100.751 10.3217 100.711C10.5616 101.134 10.8249 101.735 11.0978 102.486C11.7695 104.335 12.44 106.95 13.035 109.667L13.3008 109.622C13.6234 111.643 14.0266 113.844 14.5125 115.606C14.7528 116.807 15.1846 117.98 15.7965 119.099L15.8206 119.143L15.8529 119.181C15.9079 119.247 15.9863 119.329 16.088 119.391C16.1928 119.454 16.3853 119.53 16.6078 119.45C16.813 119.376 16.914 119.214 16.9589 119.121C17.0076 119.021 17.035 118.913 17.053 118.817C17.1221 118.447 17.1272 117.798 17.0985 116.865L17.0974 116.829L17.0909 116.793C16.856 115.481 16.6558 114.292 16.4732 113.209C16.2239 111.729 16.0075 110.444 15.7804 109.306C15.3859 107.329 15.0132 105.758 14.642 104.22L14.6405 104.213C13.6326 100.262 13.1003 96.2536 13.0492 92.2342L13.03 90.7189L12.3586 91.6501C12.2589 91.3391 12.1589 90.8738 12.0626 90.2759C11.8476 88.9421 11.6767 87.1311 11.5135 85.4008C11.4896 85.1474 11.4658 84.8958 11.4421 84.6476C11.3499 83.6821 11.2584 82.7699 11.1612 82.0272C11.067 81.3082 10.9601 80.6805 10.8191 80.33C10.7833 80.2409 10.7284 80.125 10.6411 80.0273C10.5504 79.9258 10.3504 79.7706 10.0707 79.8308C9.8739 79.8732 9.75228 80.0035 9.68841 80.0898C9.49835 77.5989 9.45081 75.1034 9.54587 72.6099C9.65105 72.6719 9.81093 72.7162 9.98771 72.6493C10.1475 72.5888 10.2246 72.4701 10.2491 72.4293C10.2802 72.3774 10.297 72.3296 10.3054 72.303C10.323 72.2476 10.3324 72.1926 10.338 72.1545C10.36 72.0043 10.3705 71.7629 10.3798 71.5357C10.381 71.5057 10.3822 71.4756 10.3834 71.4452C10.3847 71.4128 10.3861 71.3803 10.3874 71.3477L10.9699 71.2745C10.7735 58.391 10.3663 45.7993 9.83538 33.446L9.83536 33.4455C9.56388 27.2665 9.26815 21.1468 8.94818 15.0863L8.94811 15.085L8.49011 6.82665L8.49004 6.82531L8.4616 6.33651C8.96742 6.26683 9.47783 6.21613 9.99082 6.1846C10.2382 6.1846 10.5951 6.18444 10.9213 6.14686L10.9219 6.14686L10.9227 6.14686L10.9236 6.14686L10.9245 6.14686L10.9253 6.14686L10.9262 6.14686L10.9271 6.14686L10.928 6.14686L10.9289 6.14686L10.9298 6.14686L10.9306 6.14686L10.9315 6.14686L10.9324 6.14686L10.9333 6.14686L10.9343 6.14686L10.9352 6.14686L10.9361 6.14686L10.937 6.14686L10.9379 6.14686L10.9388 6.14686L10.9398 6.14686L10.9407 6.14686L10.9416 6.14686L10.9426 6.14686L10.9435 6.14686L10.9444 6.14686L10.9454 6.14686L10.9463 6.14686L10.9473 6.14686L10.9483 6.14686L10.9492 6.14686L10.9502 6.14686L10.9511 6.14686L10.9521 6.14686L10.9531 6.14686L10.9541 6.14686L10.955 6.14686L10.956 6.14686L10.957 6.14686L10.958 6.14686L10.959 6.14686L10.96 6.14686L10.961 6.14686L10.962 6.14686L10.963 6.14686L10.964 6.14686L10.965 6.14686L10.966 6.14686L10.967 6.14686L10.968 6.14686L10.969 6.14686L10.97 6.14686L10.9711 6.14686L10.9721 6.14686L10.9731 6.14686L10.9742 6.14686L10.9752 6.14686L10.9762 6.14686L10.9773 6.14686L10.9783 6.14686L10.9794 6.14686L10.9804 6.14686L10.9815 6.14686L10.9825 6.14686L10.9836 6.14686L10.9847 6.14686L10.9857 6.14686L10.9868 6.14686L10.9879 6.14686L10.9889 6.14686L10.99 6.14686L10.9911 6.14686L10.9922 6.14686L10.9932 6.14686L10.9943 6.14686L10.9954 6.14686L10.9965 6.14686L10.9976 6.14686L10.9987 6.14686L10.9998 6.14686L11.0009 6.14686L11.002 6.14686L11.0031 6.14686L11.0042 6.14686L11.0054 6.14686L11.0065 6.14686L11.0076 6.14686L11.0087 6.14686L11.0098 6.14686L11.011 6.14686L11.0121 6.14686L11.0132 6.14686L11.0143 6.14686L11.0155 6.14686L11.0166 6.14686L11.0177 6.14686L11.0189 6.14686L11.02 6.14686L11.0212 6.14686L11.0223 6.14686L11.0235 6.14686L11.0246 6.14686L11.0258 6.14686L11.027 6.14686L11.0281 6.14686L11.0293 6.14686L11.0305 6.14686L11.0316 6.14686L11.0328 6.14686L11.034 6.14686L11.0351 6.14686L11.0363 6.14686L11.0375 6.14686L11.0387 6.14686L11.0399 6.14686L11.041 6.14686L11.0422 6.14686L11.0434 6.14686L11.0446 6.14686L11.0458 6.14686L11.047 6.14686L11.0482 6.14686L11.0494 6.14686L11.0506 6.14686L11.0518 6.14686L11.053 6.14686L11.0542 6.14686L11.0555 6.14686L11.0567 6.14686L11.0579 6.14686L11.0591 6.14686L11.0603 6.14686L11.0616 6.14686L11.0628 6.14686L11.064 6.14686L11.0652 6.14686L11.0665 6.14686L11.0677 6.14686L11.0689 6.14686L11.0702 6.14686L11.0714 6.14686L11.0727 6.14686L11.0739 6.14686L11.0752 6.14686L11.0764 6.14686L11.0776 6.14686L11.0789 6.14686L11.0802 6.14686L11.0814 6.14686L11.0827 6.14686L11.0839 6.14686L11.0852 6.14686L11.0865 6.14686L11.0877 6.14686L11.089 6.14686L11.0903 6.14686L11.0915 6.14686L11.0928 6.14686L11.0941 6.14686L11.0953 6.14686L11.0966 6.14686L11.0979 6.14686L11.0992 6.14686L11.1005 6.14686L11.1017 6.14686L11.103 6.14686L11.1043 6.14686L11.1056 6.14686L11.1069 6.14686L11.1082 6.14686L11.1095 6.14686L11.1108 6.14686L11.1121 6.14686L11.1134 6.14686L11.1147 6.14686L11.116 6.14686L11.1173 6.14686L11.1186 6.14686L11.1199 6.14686L11.1212 6.14686L11.1225 6.14686L11.1238 6.14686L11.1251 6.14686L11.1265 6.14686L11.1278 6.14686L11.1291 6.14686L11.1304 6.14686L11.1317 6.14686L11.1331 6.14686L11.1344 6.14686L11.1357 6.14686L11.137 6.14686L11.1384 6.14686L11.1397 6.14686L11.141 6.14686L11.1424 6.14686L11.1437 6.14686L11.145 6.14686L11.1464 6.14686L11.1477 6.14686L11.149 6.14686L11.1504 6.14686L11.1517 6.14686L11.1531 6.14686L11.1544 6.14686L11.1558 6.14686L11.1571 6.14686L11.1585 6.14686L11.1598 6.14686L11.1612 6.14686L11.1625 6.14686L11.1639 6.14686L11.1652 6.14686L11.1666 6.14686L11.1679 6.14686L11.1693 6.14686L11.1707 6.14686L11.172 6.14686L11.1734 6.14686L11.1747 6.14686L11.1761 6.14686L11.1775 6.14686L11.1788 6.14686L11.1802 6.14686L11.1816 6.14686L11.183 6.14686L11.1843 6.14686L11.1857 6.14686L11.1871 6.14686L11.1884 6.14686L11.1898 6.14686L11.1912 6.14686L11.1926 6.14686L11.194 6.14686L11.1953 6.14686L11.1967 6.14686L11.1981 6.14686L11.1995 6.14686L11.2009 6.14686L11.2022 6.14686L11.2036 6.14686L11.205 6.14686L11.2064 6.14686L11.2078 6.14686L11.2092 6.14686L11.2106 6.14686L11.212 6.14686L11.2134 6.14686L11.2148 6.14686L11.2162 6.14686L11.2175 6.14686L11.2189 6.14686L11.2203 6.14686L11.2217 6.14686L11.2231 6.14686L11.2245 6.14686L11.2259 6.14686L11.2273 6.14686L11.2287 6.14686L11.2301 6.14686L11.2315 6.14686L11.2329 6.14686L11.2343 6.14686L11.2357 6.14686L11.2372 6.14686L11.2386 6.14686L11.24 6.14686L11.2414 6.14686L11.2428 6.14686L11.2442 6.14686L11.2456 6.14686L11.247 6.14686L11.2484 6.14686L11.2498 6.14686L11.2512 6.14686L11.2527 6.14686L11.2541 6.14686L11.2555 6.14686L11.2569 6.14686L11.2583 6.14686L11.2597 6.14686L11.2611 6.14686L11.2626 6.14686L11.264 6.14686L11.2654 6.14686L11.2668 6.14686L11.2682 6.14686L11.2696 6.14686L11.2711 6.14686L11.2725 6.14686L11.2739 6.14686L11.2753 6.14686L11.2767 6.14686L11.2782 6.14686L11.2796 6.14686L11.281 6.14686L11.2824 6.14686L11.2839 6.14686L11.2853 6.14686L11.2867 6.14686L11.2881 6.14686L11.2895 6.14686L11.291 6.14686L11.2924 6.14686L11.2938 6.14686L11.2952 6.14686L11.2967 6.14686L11.2981 6.14686L11.2995 6.14686L11.3009 6.14686L11.3024 6.14686L11.3038 6.14686L11.3052 6.14686L11.3067 6.14686L11.3081 6.14686L11.3095 6.14686L11.3109 6.14686L11.3124 6.14686L11.3138 6.14686L11.3152 6.14686L11.3166 6.14686L11.3181 6.14686L11.3195 6.14686L11.3209 6.14686L11.3224 6.14686L11.3238 6.14686L11.3252 6.14686L11.3266 6.14686L11.3281 6.14686L11.3295 6.14686L11.3309 6.14686L11.3324 6.14686L11.3338 6.14686L11.3352 6.14686L11.3366 6.14686L11.3381 6.14686L11.3395 6.14686L11.3409 6.14686L11.3424 6.14686L11.3438 6.14686L11.3452 6.14686L11.3466 6.14686L11.3481 6.14686L11.3495 6.14686L11.3509 6.14686L11.3524 6.14686L11.3538 6.14686L11.3552 6.14686L11.3566 6.14686L11.3581 6.14686L11.3595 6.14686L11.3609 6.14686L11.3623 6.14686L11.3638 6.14686L11.3652 6.14686L11.3666 6.14686L11.368 6.14686L11.3695 6.14686L11.3709 6.14686L11.3723 6.14686L11.3737 6.14686L11.3752 6.14686L11.3766 6.14686L11.378 6.14686L11.3794 6.14686L11.3808 6.14686L11.3823 6.14686L11.3837 6.14686L11.3851 6.14686L11.3865 6.14686L11.3879 6.14686L11.3894 6.14686L11.3908 6.14686L11.3922 6.14686L11.3936 6.14686L11.395 6.14686L11.3965 6.14686L11.3979 6.14686L11.3993 6.14686L11.4007 6.14686L11.4021 6.14686L11.4035 6.14686L11.405 6.14686L11.4064 6.14686L11.4078 6.14686L11.4092 6.14686L11.4106 6.14686L11.412 6.14686L11.4134 6.14686L11.4149 6.14686L11.4163 6.14686L11.4177 6.14686L11.4191 6.14686L11.4205 6.14686L11.4219 6.14686L11.4233 6.14686L11.4247 6.14686L11.4261 6.14686L11.4275 6.14686L11.4289 6.14686L11.4303 6.14686L11.4317 6.14686L11.4331 6.14686L11.4345 6.14686L11.4359 6.14686L11.4373 6.14686L11.4387 6.14686L11.4401 6.14686L11.4415 6.14686L11.4429 6.14686L11.4443 6.14686L11.4457 6.14686L11.4471 6.14686L11.4485 6.14686L11.4499 6.14686L11.4513 6.14686L11.4527 6.14686L11.4541 6.14686L11.4554 6.14686L11.4568 6.14686L11.4582 6.14686L11.4596 6.14686L11.461 6.14686L11.4624 6.14686L11.4638 6.14686L11.4651 6.14686L11.4665 6.14686L11.4679 6.14686L11.4693 6.14686L11.4707 6.14686L11.472 6.14686L11.4734 6.14686L11.4748 6.14686L11.4762 6.14686L11.4775 6.14686L11.4789 6.14686L11.4803 6.14686L11.4816 6.14686L11.483 6.14686L11.4844 6.14686L11.4857 6.14686L11.4871 6.14686L11.4885 6.14686L11.4898 6.14686L11.4912 6.14686L11.4926 6.14686L11.4939 6.14686L11.4953 6.14686L11.4966 6.14686L11.498 6.14686L11.4993 6.14686L11.5007 6.14686L11.502 6.14686L11.5034 6.14686L11.5047 6.14686L11.5061 6.14686L11.5074 6.14686L11.5088 6.14686L11.5101 6.14686L11.5115 6.14686L11.5128 6.14686L11.5142 6.14686L11.5155 6.14686L11.5168 6.14686L11.5182 6.14686L11.5195 6.14686L11.5208 6.14686L11.5222 6.14686L11.5235 6.14686L11.5248 6.14686L11.5261 6.14686L11.5275 6.14686L11.5288 6.14686L11.5301 6.14686L11.5314 6.14686L12.2585 6.14686C13.1961 6.14686 14.1365 6.18931 15.0817 6.25351L15.0921 6.25422L15.1025 6.25448C19.8825 6.38027 24.6504 7.10122 29.3967 7.81893C30.3079 7.95672 31.2184 8.09439 32.128 8.22771C34.257 8.53976 36.3758 8.86407 38.4896 9.18764C41.949 9.71716 45.3953 10.2447 48.8525 10.7132C54.4394 11.5036 60.076 12.086 65.7413 12.4581L65.7432 12.4582C71.5108 12.8153 77.3002 12.9415 83.0861 12.8364L83.0978 12.8362L83.1094 12.8355C85.3942 12.6872 87.6591 12.3998 89.8811 11.976L89.8888 11.9745L89.8964 11.9728C90.1715 11.9113 90.3975 11.8495 90.5729 11.7854C90.7216 11.731 90.9238 11.6452 91.0575 11.4911C91.1378 11.3985 91.2262 11.2418 91.204 11.0387C91.1831 10.8473 91.0746 10.7207 91.0012 10.6547C90.8667 10.5335 90.6855 10.4668 90.5561 10.4259L90.5537 10.4252C90.3628 10.3658 90.1068 10.3117 89.8083 10.2616C93.992 9.92027 98.1619 9.51183 102.322 9.0766L102.243 8.08007C98.6136 8.27952 94.9862 8.45902 91.3615 8.59099C93.0269 8.37391 94.7133 8.13901 96.0588 7.89557L100.997 7.54173L101.102 6.56316C100.248 6.31311 99.0573 6.20197 97.6305 6.17577C96.1941 6.14941 94.4796 6.209 92.559 6.31808C90.3974 6.44083 87.952 6.62788 85.3311 6.82834C83.3067 6.98317 81.1776 7.14601 78.9939 7.29342L78.9913 7.2936C73.837 7.66831 68.657 7.81371 63.4791 7.72901C61.0743 7.6825 58.6747 7.5559 56.2877 7.34982C55.9159 7.30205 55.4645 7.24822 54.9271 7.18519C54.6778 7.15595 54.4087 7.1246 54.1189 7.09083C52.9112 6.95014 51.3429 6.76743 49.3394 6.51984L49.2025 7.51032C50.2166 7.66545 51.2344 7.80608 52.2551 7.93219M19.8771 4.06319C19.8764 4.0631 19.8758 4.06301 19.8752 4.06292L19.8049 4.55796L19.8793 4.06353C19.8785 4.06341 19.8778 4.0633 19.8771 4.06319ZM19.8771 4.06319C22.2781 4.40413 24.67 4.83133 27.0597 5.26219C29.4584 5.67897 31.8691 6.10114 34.292 6.5287C38.8084 7.29067 43.3714 8.00534 48.0061 8.59074L48.1017 7.75324C49.4094 7.89079 50.7188 8.02196 52.0286 8.1403C52.1043 8.01435 52.2119 7.95424 52.2551 7.93219M52.2551 7.93219C53.2184 8.05121 54.1844 8.15729 55.1526 8.25038C55.0801 8.25124 55.0075 8.25207 54.935 8.2529C54.599 8.25674 54.2648 8.26057 53.9555 8.26657C53.6651 8.21881 53.4282 8.17623 53.2387 8.13832C52.9409 8.07876 52.7913 8.03656 52.7354 8.01418C52.7239 8.0096 52.7321 8.01189 52.7502 8.02303C52.7585 8.0281 52.8285 8.06964 52.8848 8.16203C52.8948 8.17842 52.9049 8.19721 52.9141 8.21826L52.2551 7.93219ZM16.5987 116.881C16.6212 117.611 16.6209 118.129 16.5933 118.469C16.6198 118.519 16.6467 118.569 16.674 118.619L16.5698 118.676C16.5148 119.029 16.4071 119.063 16.2352 118.859C16.1913 118.779 16.1483 118.698 16.1063 118.617C16.0757 118.651 16.062 118.679 16.0598 118.684L16.0598 118.684C16.0576 118.688 16.0566 118.691 16.0566 118.691C16.0564 118.691 16.0623 118.674 16.07 118.633C16.0737 118.613 16.0772 118.591 16.0805 118.567C15.5706 117.574 15.208 116.542 14.9993 115.49C14.5161 113.743 14.1152 111.553 13.7936 109.536L16.5987 116.881ZM16.5987 116.881C16.3613 115.555 16.1605 114.363 15.978 113.279M16.5987 116.881L15.978 113.279M9.92433 101.636C9.90639 101.425 9.87665 101.185 9.84044 100.893C9.79922 100.561 9.74959 100.161 9.69936 99.658L9.92433 101.636ZM9.92433 101.636C9.92441 101.636 9.92449 101.636 9.92457 101.636C9.9849 101.687 10.0275 101.743 10.0549 101.783C10.11 101.864 10.153 101.956 10.1848 102.03C10.2501 102.183 10.3091 102.365 10.3496 102.491L9.89859 102.636L9.92433 101.636ZM9.2 101.631C9.1914 101.638 9.18318 101.646 9.17536 101.653C9.0951 101.731 9.05107 101.818 9.02682 101.875C8.9777 101.99 8.95041 102.127 8.93177 102.262C8.89291 102.544 8.87221 102.974 8.87221 103.598L9.37221 103.598L9.64889 103.574L9.2 101.631ZM9.2 101.631L8.54924 94.1964L9.2 101.631ZM15.1156 5.75466C14.1632 5.68998 13.2108 5.64686 12.2585 5.64686L11.5314 5.64686L10.8917 5.64686C10.5863 5.68459 10.2373 5.6846 9.97562 5.6846L15.1156 5.75466ZM15.1156 5.75466C19.9295 5.88133 24.7331 6.60784 29.4792 7.32566C30.3885 7.46318 31.2957 7.60039 32.2005 7.733C34.3365 8.04608 36.4579 8.37081 38.5726 8.69451C42.0287 9.22354 45.4669 9.74984 48.9219 10.218L15.1156 5.75466ZM15.978 113.279C15.7302 111.808 15.5162 110.537 15.2901 109.404M15.978 113.279L15.2901 109.404M15.2901 109.404C14.8975 107.437 14.5267 105.873 14.156 104.337L15.2901 109.404ZM16.6064 118.536C16.6018 118.533 16.5957 118.529 16.5883 118.526C16.587 118.539 16.5857 118.552 16.5843 118.565L16.6136 118.54C16.6114 118.539 16.609 118.537 16.6064 118.536ZM5.40557 62.4386C5.37383 64.9576 5.34269 67.4292 5.40271 69.638L5.02128 52.2949C5.06031 51.8256 5.11741 51.332 5.18659 50.8106C5.50921 54.2126 5.45662 58.387 5.40557 62.4386ZM5.68009 33.2705C5.69509 33.3246 5.7105 33.3879 5.72634 33.4609C5.7111 33.4679 5.69473 33.4743 5.6773 33.4799C5.67823 33.4101 5.67917 33.3403 5.68009 33.2705ZM5.75576 34.0393C5.7546 34.0461 5.75344 34.0529 5.75227 34.0597L5.83165 34.055C5.81884 33.9704 5.80629 33.8917 5.79399 33.8186C5.79015 33.8402 5.78627 33.8622 5.78235 33.8847C5.77365 33.9346 5.76477 33.9865 5.75576 34.0393ZM5.35556 34.4946L5.16278 34.4917L4.67547 34.3797C4.70463 34.2528 4.7336 34.0835 4.76657 33.8909C4.77639 33.8335 4.78656 33.774 4.79721 33.7129C4.83927 33.4717 4.89172 33.1859 4.95908 32.9905C4.97694 32.9387 5.0013 32.8766 5.03485 32.8164C5.05675 32.777 5.10406 32.698 5.18817 32.6285C5.25729 26.9515 5.2573 21.0141 5.2573 14.8755L5.35556 34.4946ZM54.3581 9.08278C56.1354 9.30815 58.1241 9.54177 60.3142 9.75445C60.4286 9.76528 60.5431 9.77599 60.6575 9.78655C60.5427 9.77975 60.4279 9.77282 60.3131 9.76579C58.3153 9.6435 56.3215 9.48812 54.3332 9.29981L54.3581 9.08278ZM50.8811 8.11904C51.233 8.16661 51.5972 8.21585 51.9738 8.26637L48.0135 8.59168L48.0494 8.25049L48.1106 7.75424C48.9265 7.85481 49.8506 7.97974 50.8811 8.11904ZM57.2753 8.00791L57.2347 8.1901L57.2753 8.00791ZM90.3467 10.7948C90.3465 10.7949 90.3457 10.7954 90.3442 10.7964C90.3461 10.7953 90.3468 10.7947 90.3467 10.7948ZM8.45452 5.91639L8.45452 6.21457L8.31803 5.8517L8.11446 5.87865L8.3216 5.87865L8.32184 5.87865L8.45452 5.87865L8.45452 5.91639ZM12.1151 91.9836C12.115 91.9839 12.1168 91.9823 12.1204 91.9782C12.117 91.9814 12.1152 91.9834 12.1151 91.9836Z" fill="#F7EDE2" stroke="#F7EDE2"/>
<path d="M36.0244 139.608L36.134 139.609L36.233 139.657C36.2495 139.664 36.3141 139.688 36.4541 139.718C36.5849 139.746 36.7541 139.775 36.9599 139.805C37.3709 139.863 37.9038 139.919 38.5194 139.973C39.6038 140.069 40.9225 140.158 42.2445 140.247C42.4229 140.259 42.6013 140.271 42.7792 140.283C44.2705 140.385 45.7285 140.488 46.7944 140.601C47.324 140.658 47.7758 140.719 48.0913 140.788C48.241 140.821 48.4002 140.863 48.5259 140.926C48.5816 140.953 48.6935 141.014 48.778 141.131C48.8257 141.197 48.8722 141.292 48.8818 141.41C48.8916 141.532 48.8595 141.639 48.8133 141.721L48.6664 141.984L48.3658 141.977L36.7845 141.718L36.7661 141.472C36.7242 141.463 36.6698 141.452 36.6012 141.44C36.4457 141.413 36.2475 141.385 36.0155 141.358C35.3335 141.276 34.4144 141.198 33.539 141.123C33.2153 141.096 32.8976 141.069 32.6001 141.043L32.5995 141.042C32.0633 140.994 31.5787 140.946 31.2663 140.9C31.1337 140.88 30.9623 140.852 30.8455 140.803L30.8451 140.803C30.8196 140.792 30.729 140.754 30.6493 140.669C30.6041 140.62 30.5361 140.529 30.516 140.393C30.4942 140.246 30.5397 140.118 30.6001 140.03C30.6915 139.897 30.8199 139.846 30.8471 139.836L30.8492 139.835C30.8966 139.816 30.942 139.804 30.9743 139.797L31.0062 139.79L31.0387 139.788C32.6934 139.646 34.359 139.586 36.0244 139.608ZM36.7209 141.366C36.7345 141.386 36.7485 141.403 36.762 141.417L36.7275 140.955C36.7065 140.951 36.6848 140.947 36.6624 140.943C36.6599 140.951 36.6575 140.958 36.6552 140.966C36.608 141.131 36.6589 141.277 36.7209 141.366Z" fill="#F7EDE2" stroke="#F7EDE2"/>
<path d="M191.817 2.2976C191.811 2.29995 191.797 2.30644 191.779 2.31826L191.778 2.31852C191.767 2.32514 191.584 2.43947 191.578 2.69096C191.576 2.75272 191.586 2.80675 191.601 2.85339C191.696 2.83823 191.777 2.82294 191.845 2.80751L191.921 2.13024C194.239 1.94045 196.628 1.84302 199.037 1.81596C201.442 1.78894 203.849 1.80513 206.184 1.88088C208.513 1.95642 210.771 2.04821 212.884 2.1671L212.884 2.1671L212.886 2.16722C213.861 2.2259 214.797 2.28427 215.692 2.34003C216.612 2.39742 217.488 2.45205 218.317 2.50141L218.762 2.52796L218.786 2.97374L218.888 4.87121L217.91 5.04219L217.536 3.80156C216.562 3.85484 215.515 3.91182 214.446 3.96879L214.446 3.96884L214.438 3.96913C213.821 3.99295 213.193 4.01789 212.561 4.04296C211.767 4.07448 210.968 4.10622 210.179 4.13622C207.278 4.25482 204.48 4.3839 202.309 4.55023L202.307 4.55039C201.292 4.62365 200.421 4.70305 199.739 4.78901C200.052 4.84118 200.417 4.89567 200.839 4.95227L200.783 5.94774C194.08 6.07725 190.183 6.03413 186.794 5.94768C185.514 5.91501 184.314 5.86812 183.068 5.81944C181 5.73866 178.806 5.65295 175.912 5.61915C174.54 5.6887 172.848 5.75108 171.124 5.81464C169.917 5.85916 168.694 5.90424 167.555 5.95276C166.165 6.01198 164.893 6.08168 163.904 6.16828C163.41 6.21162 162.993 6.25861 162.672 6.30942C162.33 6.36346 162.154 6.4138 162.097 6.4417L161.992 6.493L161.875 6.49226C161.614 6.49063 161.361 6.48901 161.117 6.48744C157.331 6.46321 155.444 6.45112 153.082 6.5618C150.57 6.67958 147.501 6.95288 141.017 7.67513L141.003 7.67665L140.989 7.67742C136.512 7.92802 132.115 8.1402 129.583 8.17879C128.95 8.18843 128.427 8.18738 128.044 8.17272C127.854 8.16544 127.689 8.15446 127.559 8.13795C127.495 8.12978 127.428 8.11893 127.366 8.10317C127.324 8.09252 127.208 8.0624 127.104 7.97877C127.046 7.93165 126.946 7.83081 126.915 7.66539C126.882 7.48817 126.947 7.3456 127.006 7.26337C127.098 7.13616 127.226 7.07783 127.265 7.06061L127.266 7.05978C127.379 7.00878 127.531 6.96697 127.694 6.92937C128.035 6.85032 128.572 6.75662 129.322 6.64583L129.337 6.64352L129.353 6.6422C137.649 5.94873 145.958 5.38092 154.278 4.93877C154.514 4.90802 154.735 4.87818 154.941 4.84924C154.455 4.82581 153.925 4.80592 153.371 4.78861C152.403 4.75839 151.345 4.73733 150.341 4.71733C149.328 4.69717 148.37 4.67809 147.613 4.65178C146.856 4.6255 146.229 4.59064 145.896 4.5319C145.816 4.51791 145.711 4.49588 145.618 4.45463C145.591 4.44274 145.536 4.41712 145.478 4.36998C144.482 4.45505 143.501 4.61585 142.55 4.84986L142.502 4.86167L142.452 4.86385C136.347 5.13328 130.244 5.44576 124.141 5.83899L123.989 4.85473L126.01 4.35341L126.01 4.35335L126.018 4.35158C127.94 3.90686 129.945 3.69883 131.956 3.73505C133.677 3.76557 135.399 3.68708 137.102 3.50055C137.119 3.48196 137.135 3.46652 137.149 3.45427C137.29 3.33185 137.488 3.26505 137.629 3.22327C137.956 3.12649 138.455 3.03807 139.059 2.95467C140.28 2.78605 142.041 2.62341 143.99 2.46973C145.722 2.33318 147.594 2.21244 149.376 2.09747C151.636 1.95164 153.752 1.81511 155.257 1.66739L155.271 1.666L155.285 1.66542C158.976 1.5143 162.003 1.43874 164.491 1.3848C166.984 1.33075 168.934 1.34148 170.47 1.38485C173.493 1.45995 174.94 1.64116 175.7 1.89412C176.105 2.02139 176.352 2.1746 176.538 2.36337C176.609 2.43515 176.668 2.50992 176.707 2.55908C176.713 2.56693 176.718 2.57413 176.723 2.58055C176.765 2.63285 176.79 2.66094 176.819 2.68599C176.87 2.72957 176.99 2.8112 177.343 2.8955C177.695 2.97976 178.245 3.05851 179.127 3.11953C179.957 3.07556 180.934 3.02564 181.972 2.97259C183.862 2.87595 185.956 2.76889 187.746 2.66842C189.138 2.59027 190.33 2.50602 191.092 2.41761C191.487 2.37167 191.72 2.32935 191.81 2.29985C191.813 2.2989 191.815 2.29815 191.817 2.2976ZM191.817 2.2976C191.818 2.29693 191.819 2.2966 191.819 2.29658C191.819 2.29657 191.818 2.29692 191.817 2.2976ZM146.23 4.16832C146.244 4.14064 146.256 4.10963 146.264 4.07592C146.239 4.07344 146.215 4.07091 146.192 4.06832L146.21 4.20494C146.217 4.1935 146.224 4.18131 146.23 4.16832ZM198.334 4.98928C197.816 4.81358 197.885 4.65651 198.403 4.51565C198.43 4.55332 198.465 4.61689 198.475 4.70403C198.487 4.79836 198.465 4.88308 198.432 4.94705C198.425 4.9623 198.416 4.97598 198.408 4.98819C198.383 4.98855 198.358 4.98892 198.334 4.98928ZM198.582 4.9856C199.275 4.97516 200.001 4.96266 200.763 4.94793L200.773 5.44784L200.707 5.94341C199.541 5.78727 198.734 5.63845 198.258 5.49042C193.057 5.56505 189.741 5.52268 186.807 5.44784C185.541 5.41553 184.345 5.36886 183.1 5.32027C181.022 5.23915 178.807 5.15272 175.902 5.11901C174.529 5.18878 172.839 5.25109 171.113 5.31471C169.905 5.35923 168.68 5.4044 167.534 5.45322C164.749 5.57181 162.408 5.73353 161.878 5.99227L198.582 4.9856ZM127.612 7.134C127.613 7.1342 127.614 7.13445 127.615 7.13474C127.605 7.13148 127.603 7.1317 127.612 7.134ZM198.455 4.50193C199.133 4.32859 200.493 4.18004 202.271 4.05169C204.452 3.88458 207.258 3.7552 210.159 3.6366L198.455 4.50193Z" fill="#F7EDE2" stroke="#F7EDE2"/>
<path d="M99.4253 8.79569L99.4682 8.78451L99.5124 8.78105C102.519 8.54538 105.53 8.28944 108.538 8.03364C112.395 7.70574 116.249 7.37808 120.089 7.09364L120.168 8.09047C116.296 8.42004 112.443 8.79033 108.58 9.16155C105.158 9.4904 101.729 9.81998 98.2719 10.1226L98.1021 9.14069L99.4253 8.79569Z" fill="#F7EDE2" stroke="#F7EDE2"/>
<path d="M217.413 21.3975L216.426 21.5236L214.195 12.0685L214.014 11.302L214.784 11.4644L216.166 11.7555L216.554 11.8374L216.562 12.2346C216.594 13.8201 216.785 15.2763 216.981 16.7614L216.985 16.7942C217.179 18.2629 217.376 19.7613 217.413 21.3975Z" fill="#F7EDE2" stroke="#F7EDE2"/>
<path d="M15.8602 1.04492L15.7159 2.03231C14.295 1.91842 12.8667 1.86136 11.4374 1.86141L10.9082 1.86141L10.1537 1.88806L10.1517 1.88812C10.0251 1.89209 9.90025 1.89571 9.77657 1.8993C9.39295 1.91043 9.02011 1.92126 8.63758 1.94109C8.33409 1.96859 8.034 1.99327 7.73734 2.01766C6.972 2.08059 6.22949 2.14165 5.51028 2.24449L5.51029 2.24455L5.50253 2.24554L2.50071 2.62695L2.50071 3.02708L2.50071 4.1591L2.50071 4.17149L2.5001 4.18386C2.48312 4.52619 2.49309 4.88813 2.50849 5.27456C2.51115 5.34119 2.51398 5.40869 2.51683 5.47689C2.53011 5.7939 2.54402 6.12596 2.54433 6.45529L2.63113 8.45526L2.63123 8.45788C2.76961 12.0868 2.82124 15.6383 2.57222 19.2333L1.57699 19.2584L1.21127 16.2156L0.549176 16.1768C0.505275 15.4255 0.492903 14.9122 0.50368 14.5547C0.514089 14.2093 0.546419 13.959 0.623898 13.7675C0.689258 13.606 0.791365 13.4945 0.844373 13.4436C0.861602 13.0504 0.86715 12.657 0.860997 12.2635L0.860936 12.2635L0.860936 12.2557L0.860936 12.251L0.860936 12.2463L0.860936 12.2416L0.860936 12.2369L0.860936 12.2322L0.860936 12.2274L0.860936 12.2227L0.860936 12.218L0.860936 12.2133L0.860936 12.2086L0.860936 12.2038L0.860936 12.1991L0.860936 12.1944L0.860936 12.1897L0.860936 12.1849L0.860936 12.1802L0.860936 12.1755L0.860936 12.1708L0.860936 12.166L0.860936 12.1613L0.860936 12.1566L0.860936 12.1518L0.860936 12.1471L0.860936 12.1423L0.860936 12.1376L0.860936 12.1328L0.860936 12.1281L0.860936 12.1234L0.860936 12.1186L0.860936 12.1139L0.860936 12.1091L0.860936 12.1044L0.860936 12.0996L0.860936 12.0948L0.860936 12.0901L0.860936 12.0853L0.860936 12.0806L0.860936 12.0758L0.860936 12.0711L0.860936 12.0663L0.860936 12.0615L0.860936 12.0568L0.860936 12.052L0.860936 12.0472L0.860936 12.0425L0.860936 12.0377L0.860936 12.0329L0.860936 12.0281L0.860936 12.0234L0.860936 12.0186L0.860936 12.0138L0.860936 12.009L0.860936 12.0042L0.860936 11.9995L0.860936 11.9947L0.860936 11.9899L0.860936 11.9851L0.860936 11.9803L0.860936 11.9755L0.860936 11.9707L0.860936 11.9659L0.860936 11.9611L0.860936 11.9563L0.860936 11.9515L0.860936 11.9468L0.860936 11.942L0.860936 11.9372L0.860936 11.9323L0.860936 11.9275L0.860936 11.9227L0.860936 11.9179L0.860936 11.9131L0.860936 11.9083L0.860936 11.9035L0.860936 11.8987L0.860936 11.8939L0.860936 11.8891L0.860936 11.8843L0.860936 11.8794L0.860936 11.8746L0.860936 11.8698L0.860936 11.865L0.860936 11.8602L0.860936 11.8553L0.860936 11.8505L0.860936 11.8457L0.860936 11.8408L0.860936 11.836L0.860936 11.8312L0.860936 11.8264L0.860936 11.8215L0.860936 11.8167L0.860936 11.8119L0.860936 11.807L0.860936 11.8022L0.860936 11.7973L0.860936 11.7925L0.860936 11.7877L0.860936 11.7828L0.860936 11.778L0.860936 11.7731L0.860936 11.7683L0.860936 11.7634L0.860936 11.7586L0.860936 11.7537L0.860936 11.7489L0.860936 11.744L0.860936 11.7392L0.860936 11.7343L0.860936 11.7294L0.860936 11.7246L0.860936 11.7197L0.860936 11.7149L0.860936 11.71L0.860936 11.7051L0.860936 11.7003L0.860936 11.6954L0.860936 11.6905L0.860936 11.6857L0.860936 11.6808L0.860936 11.6759L0.860936 11.671L0.860936 11.6662L0.860936 11.6613L0.860936 11.6564L0.860936 11.6515L0.860936 11.6467L0.860936 11.6418L0.860936 11.6369L0.860936 11.632L0.860936 11.6271L0.860936 11.6222L0.860936 11.6173L0.860936 11.6125L0.860936 11.6076L0.860936 11.6027L0.860936 11.5978L0.860936 11.5929L0.860936 11.588L0.860936 11.5831L0.860936 11.5782L0.860936 11.5733L0.860936 11.5684L0.860936 11.5635L0.860936 11.5586L0.860936 11.5537L0.860936 11.5488L0.860936 11.5439L0.860936 11.539L0.860936 11.5341L0.860936 11.5292L0.860936 11.5242L0.860936 11.5193L0.860936 11.5144L0.860936 11.5095L0.860936 11.5046L0.860936 11.4997L0.860936 11.4948L0.860936 11.4898L0.860936 11.4849L0.860936 11.48L0.860936 11.4751L0.860936 11.4701L0.860936 11.4652L0.860936 11.4603L0.860936 11.4554L0.860936 11.4504L0.860936 11.4455L0.860936 11.4406L0.860936 11.4356L0.860936 11.4307L0.860936 11.4258L0.860936 11.4208L0.860936 11.4159L0.860936 11.411L0.860936 11.406L0.860936 11.4011L0.860936 11.3961L0.860936 11.3912L0.860936 11.3862L0.860936 11.3813L0.860936 11.3764L0.860936 11.3714L0.860936 11.3665L0.860936 11.3615L0.860936 11.3566L0.860936 11.3516L0.860936 11.3466L0.860936 11.3417L0.860936 11.3367L0.860936 11.3318L0.860936 11.3268L0.860936 11.3219L0.860936 11.3169L0.860936 11.3119L0.860936 11.307L0.860936 11.302L0.860936 11.297L0.860936 11.2921L0.860936 11.2871L0.860936 11.2821L0.860936 11.2772L0.860936 11.2722L0.860936 11.2672L0.860936 11.2622L0.860936 11.2573L0.860936 11.2523L0.860936 11.2473L0.860936 11.2423L0.860936 11.2374L0.860936 11.2324L0.860936 11.2274L0.860936 11.2224L0.860936 11.2174L0.860936 11.2124L0.860936 11.2075L0.860936 11.2025L0.860936 11.1975L0.860936 11.1925L0.860936 11.1875L0.860936 11.1825L0.860936 11.1775L0.860936 11.1725L0.860936 11.1675L0.860936 11.1625L0.860936 11.1575L0.860936 11.1525L0.860936 11.1475L0.860936 11.1425L0.860936 11.1375L0.860936 11.1325L0.860936 11.1275L0.860936 11.1225L0.860936 11.1175L0.860936 11.1125L0.860936 11.1075L0.860936 11.1025L0.860936 11.0975L0.860936 11.0925L0.860936 11.0875L0.860936 11.0825L0.860936 11.0774L0.860936 11.0724L0.860936 11.0674L0.860936 11.0624L0.860936 11.0574L0.860936 11.0523L0.860936 11.0473L0.860936 11.0423L0.860936 11.0373L0.860936 11.0323L0.860936 11.0272L0.860936 11.0222L0.860936 11.0172L0.860936 11.0122L0.860936 11.0071L0.860936 11.0021L0.860936 10.9971L0.860936 10.992L0.860936 10.987L0.860936 10.982L0.860936 10.9769L0.860936 10.9719L0.860936 10.9668L0.860936 10.9618L0.860936 10.9568L0.860936 10.9517L0.860936 10.9467L0.860936 10.9416L0.860936 10.9366L0.860936 10.9316L0.860936 10.9265L0.860936 10.9215L0.860936 10.9164L0.860936 10.9114L0.860936 10.9063L0.860936 10.9013L0.860936 10.8962L0.860936 10.8912L0.860936 10.8861L0.860936 10.881L0.860936 10.876L0.860936 10.8709L0.860936 10.8659L0.860936 10.8608L0.860936 10.8558L0.860936 10.8507L0.860936 10.8456L0.860936 10.8406L0.860936 10.8355L0.860936 10.8304L0.860936 10.8254L0.860936 10.8203L0.860936 10.8152L0.860936 10.8102L0.860936 10.8051L0.860936 10.8L0.860936 10.795L0.860936 10.7899L0.860936 10.7848L0.860936 10.7797L0.860936 10.7747L0.860936 10.7696L0.860936 10.7645L0.860936 10.7594L0.860936 10.7543L0.860936 10.7493L0.860936 10.7442L0.860936 10.7391L0.860936 10.734L0.860936 10.7289L0.860936 10.7238L0.860936 10.7188L0.860936 10.7137L0.860936 10.7086L0.860936 10.7035L0.860936 10.6984L0.860936 10.6933L0.860936 10.6882L0.860936 10.6831L0.860936 10.678L0.860936 10.6729L0.860936 10.6678L0.860936 10.6627L0.860936 10.6577L0.860936 10.6526L0.860936 10.6475L0.860936 10.6424L0.860936 10.6373L0.860936 10.6321L0.860936 10.627L0.860936 10.6219L0.860936 10.6168L0.860936 10.6117L0.860936 10.6066L0.860936 10.6015L0.860936 10.5964L0.860936 10.5913L0.860936 10.5862L0.860936 10.5811L0.860936 10.576L0.860936 10.5708L0.860936 10.5657L0.860936 10.5606L0.860936 10.5555L0.860936 10.5504L0.860936 10.5453L0.860936 10.5401L0.860936 10.535L0.860936 10.5299L0.860936 10.5248L0.860936 10.5197L0.860936 10.5145L0.860936 10.5094L0.860936 10.5043L0.860936 10.4992L0.860936 10.494L0.860936 10.4889L0.860936 10.4838L0.860936 10.4787L0.860936 10.4735L0.860936 10.4684L0.860936 10.4633L0.860936 10.4581L0.860936 10.453L0.860936 10.4479L0.860936 10.4427L0.860936 10.4376L0.860936 10.4324L0.860936 10.4273L0.860936 10.4222L0.860936 10.417L0.860936 10.4119L0.860936 10.4067L0.860936 10.4016L0.860936 10.3965L0.860936 10.3913L0.860936 10.3862L0.860936 10.381L0.860936 10.3759L0.860936 10.3707L0.860936 10.3656L0.860936 10.3604L0.860936 10.3553L0.860936 10.3501L0.860936 10.345L0.860936 10.3398L0.860936 10.3347L0.860936 10.3295L0.860936 10.3244L0.860936 10.3192L0.860936 10.3141L0.860936 10.3089L0.860936 10.3037L0.860936 10.2986L0.860936 10.2934L0.860936 10.2883L0.860936 10.2831L0.860936 10.2779L0.860936 10.2728L0.860936 10.2676L0.860936 10.2624L0.860936 10.2573L0.860936 10.2521L0.860936 10.2469L0.860936 10.2418L0.860936 10.2366L0.860936 10.2314L0.860936 10.2263L0.860936 10.2211L0.860936 10.2159L0.860936 10.2108L0.860936 10.2056L0.860936 10.2004L0.860936 10.1952L0.860936 10.1901L0.860936 10.1849L0.860936 10.1797L0.860936 10.1745L0.860936 10.1693L0.860936 10.1642L0.860936 10.159L0.860936 10.1538L0.860936 10.1486L0.860936 10.1434L0.860936 10.1383L0.860936 10.1331L0.860936 10.1279L0.860936 10.1227L0.860936 10.1175L0.860936 10.1123L0.860936 10.1071L0.860936 10.102L0.860936 10.0968L0.860936 10.0916L0.860936 10.0864L0.860936 10.0812L0.860936 10.076L0.860936 10.0708L0.860936 10.0656L0.860936 10.0604L0.860936 10.0552L0.860936 10.05L0.860936 10.0448L0.860936 10.0396L0.860936 10.0344L0.860936 10.0292L0.860936 10.024L0.860936 10.0188L0.860936 10.0136L0.860936 10.0084L0.860936 10.0032L0.860936 9.99802L0.860936 9.99282L0.860936 9.98761L0.860936 9.98241L0.860936 9.9772L0.860936 9.97199L0.860936 9.96679L0.860936 9.96158L0.860936 9.95637L0.860936 9.95116L0.860936 9.94595L0.860936 9.94074L0.860936 9.93552L0.860936 9.93031L0.860936 9.9251L0.860936 9.91989L0.860936 9.91467L0.860936 9.90945L0.860936 9.90424L0.860936 9.89902L0.860936 9.8938L0.860936 9.88859L0.860936 9.88337L0.860936 9.87815L0.860936 9.87293L0.860936 9.86771L0.860936 9.86249L0.860936 9.85726L0.860936 9.85204L0.860936 9.84682L0.860936 9.84159L0.860936 9.83637L0.860936 9.83114L0.860936 9.82592L0.860936 9.82069L0.860936 9.81546L0.860936 9.81023L0.860936 9.805L0.860936 9.79977L0.860936 9.79454L0.860936 9.78931L0.860936 9.78408L0.860936 9.77885L0.860936 9.77362L0.860936 9.76838L0.860936 9.76315L0.860936 9.75792L0.860936 9.75268L0.860936 9.74744L0.860936 9.74221L0.860936 9.73697L0.860936 9.73173L0.860936 9.72649L0.860936 9.72125L0.860936 9.71602L0.860936 9.71078L0.860936 9.70553L0.860936 9.70029L0.860936 9.69505L0.860936 9.68981L0.860936 8.32833L0.788892 5.99344C0.751883 5.5454 0.751886 5.09072 0.751888 4.68033L0.751888 4.67121L0.751888 4.65938L0.752446 4.64757L0.81062 3.41853L0.810635 3.41822L0.868212 2.21732L0.868212 1.77649L0.868212 1.77636L0.868212 1.77624L0.868212 1.77611L0.868212 1.77598L0.868212 1.77585L0.868212 1.77572L0.868212 1.77559L0.868212 1.77546L0.868212 1.77533L0.868212 1.7752L0.868212 1.77507L0.868212 1.77494L0.868212 1.77481L0.868212 1.77467L0.868212 1.77454L0.868212 1.77441L0.868212 1.77427L0.868212 1.77414L0.868212 1.774L0.868212 1.77387L0.868212 1.77373L0.868212 1.7736L0.868212 1.77346L0.868212 1.77332L0.868212 1.77318L0.868212 1.77305L0.868212 1.77291L0.868212 1.77277L0.868212 1.77263L0.868212 1.77249L0.868212 1.77235L0.868212 1.77221L0.868212 1.77207L0.868212 1.77193L0.868212 1.77179L0.868212 1.77164L0.868212 1.7715L0.868212 1.77136L0.868212 1.77122L0.868212 1.77107L0.868212 1.77093L0.868212 1.77078L0.868212 1.77064L0.868212 1.77049L0.868212 1.77035L0.868212 1.7702L0.868212 1.77006L0.868212 1.76991L0.868212 1.76976L0.868212 1.76962L0.868212 1.76947L0.868212 1.76932L0.868212 1.76917L0.868212 1.76902L0.868212 1.76887L0.868212 1.76873L0.868212 1.76858L0.868212 1.76843L0.868212 1.76827L0.868212 1.76812L0.868212 1.76797L0.868212 1.76782L0.868212 1.76767L0.868212 1.76752L0.868212 1.76737L0.868212 1.76721L0.868212 1.76706L0.868212 1.76691L0.868212 1.76675L0.868212 1.7666L0.868212 1.76645L0.868212 1.76629L0.868212 1.76614L0.868212 1.76598L0.868212 1.76583L0.868212 1.76567L0.868212 1.76552L0.868212 1.76536L0.868212 1.76521L0.868212 1.76505L0.868212 1.76489L0.868212 1.76473L0.868212 1.76458L0.868212 1.76442L0.868212 1.76426L0.868212 1.76411L0.868212 1.76395L0.868212 1.76379L0.868212 1.76363L0.868212 1.76347L0.868212 1.76331L0.868212 1.76315L0.868212 1.76299L0.868212 1.76283L0.868212 1.76267L0.868212 1.76251L0.868212 1.76235L0.868212 1.76219L0.868212 1.76203L0.868212 1.76187L0.868212 1.76171L0.868212 1.76155L0.868212 1.76138L0.868212 1.76122L0.868212 1.76106L0.868212 1.7609L0.868212 1.76074L0.868212 1.76057L0.868212 1.76041L0.868212 1.76025L0.868212 1.76008L0.868212 1.75992L0.868212 1.75976L0.868212 1.75959L0.868212 1.75943L0.868212 1.75926L0.868212 1.7591L0.868212 1.75893L0.868212 1.75877L0.868212 1.75861L0.868212 1.75844L0.868212 1.75828L0.868212 1.75811L0.868212 1.75795L0.868212 1.75778L0.868212 1.75761L0.868212 1.75745L0.868212 1.75728L0.868212 1.75712L0.868212 1.75695L0.868212 1.75679L0.868212 1.75662L0.868212 1.75645L0.868212 1.75629L0.868212 1.75612L0.868212 1.75595L0.868212 1.75579L0.868212 1.75562L0.868212 1.75545L0.868212 1.75529L0.868212 1.75512L0.868212 1.75495L0.868212 1.75478L0.868212 1.75462L0.868212 1.75445L0.868212 1.75428L0.868212 1.75411L0.868212 1.75395L0.868212 1.75378L0.868212 1.75361L0.868212 1.75344L0.868212 1.75327L0.868212 1.75311L0.868212 1.75294L0.868212 1.75277L0.868212 1.7526L0.868212 1.75243L0.868212 1.75226L0.868212 1.7521L0.868212 1.75193L0.868212 1.75176L0.868212 1.75159L0.868212 1.75142L0.868212 1.75126L0.868212 1.75109L0.868212 1.75092L0.868212 1.75075L0.868212 1.75058L0.868212 1.75041L0.868212 1.75024L0.868212 1.75008L0.868212 1.74991L0.868212 1.74974L0.868212 1.74957L0.868212 1.7494L0.868212 1.74923L0.868212 1.74907L0.868212 1.7489L0.868212 1.74873L0.868212 1.74856L0.868212 1.74839L0.868212 1.74822L0.868212 1.74806L0.868212 1.74789L0.868212 1.74772L0.868212 1.74755L0.868212 1.74738L0.868212 1.74721L0.868212 1.74705L0.868212 1.74688L0.868212 1.74671L0.868212 1.74654L0.868212 1.74637L0.868212 1.74621L0.868212 1.74604L0.868212 1.74587L0.868212 1.7457L0.868212 1.74554L0.868212 1.74537L0.868212 1.7452L0.868212 1.74503L0.868212 1.74487L0.868212 1.7447L0.868212 1.74453L0.868212 1.74437L0.868212 1.7442L0.868212 1.74403L0.868212 1.74387L0.868212 1.7437L0.868212 1.74353L0.868212 1.74337L0.868212 1.7432L0.868212 1.74303L0.868212 1.74287L0.868212 1.74271L0.868212 1.74254L0.868212 1.74237L0.868212 1.74221L0.868212 1.74204L0.868212 1.74188L0.868212 1.74171L0.868212 1.74155L0.868212 1.74138L0.868212 1.74122L0.868212 1.74106L0.868212 1.74089L0.868212 1.74073L0.868212 1.74056L0.868212 1.7404L0.868212 1.74023L0.868212 1.74007L0.868212 1.73991L0.868212 1.73975L0.868212 1.73958L0.868212 1.73942L0.868212 1.73926L0.868212 1.7391L0.868212 1.73893L0.868212 1.73877L0.868212 1.73861L0.868212 1.73845L0.868212 1.73829L0.868212 1.73813L0.868212 1.73797L0.868212 1.73781L0.868212 1.73764L0.868212 1.73748L0.868212 1.73732L0.868212 1.73716L0.868212 1.73701L0.868212 1.73685L0.868212 1.73669L0.868212 1.73653L0.868212 1.73637L0.868212 1.73621L0.868212 1.73605L0.868212 1.7359L0.868212 1.73574L0.868212 1.73558L0.868212 1.73542L0.868212 1.73527L0.868212 1.73511L0.868212 1.73495L0.868212 1.7348L0.868212 1.73464L0.868212 1.73449L0.868212 1.73433L0.868212 1.73418L0.868212 1.73402L0.868212 1.73387L0.868212 1.73371L0.868212 1.73356L0.868212 1.73341L0.868212 1.73325L0.868212 1.7331L0.868212 1.73295L0.868212 1.73279L0.868212 1.73264L0.868212 1.73249L0.868212 1.73234L0.868212 1.73219L0.868212 1.73204L0.868212 1.73189L0.868212 1.73174L0.868212 1.73159L0.868212 1.73144L0.868212 1.73129L0.868212 1.73114L0.868212 1.73099L0.868212 1.73084L0.868212 1.7307L0.868212 1.73055L0.868212 1.7304L0.868212 1.73026L0.868212 1.73011L0.868212 1.72996L0.868212 1.72982L0.868212 1.72967L0.868212 1.72953L0.868212 1.72938L0.868212 1.72924L0.868212 1.72909L0.868212 1.72895L0.868212 1.72881L0.868212 1.72867L0.868212 1.72852L0.868212 1.72838L0.868212 1.72824L0.868212 1.7281L0.868212 1.72796L0.868212 1.72782L0.868212 1.72768L0.868212 1.72754L0.868212 1.7274L0.868212 1.72726L0.868212 1.72712L0.868212 1.72699L0.868212 1.72685L0.868212 1.72671L0.868212 1.72657L0.868212 1.72644L0.868212 1.7263L0.868212 1.72617L0.868212 1.72603L0.868212 1.7259L0.868212 1.72577L0.868212 1.72563L0.868212 1.7255L0.868212 1.72537L0.868212 1.72524L0.868212 1.7251L0.868212 1.72497L0.868212 1.72484L0.868212 1.72471L0.868212 1.72458L0.868212 1.72445L0.868212 1.72432L0.868212 1.7242L0.868212 1.72407L0.868212 1.72394L0.868212 1.72381L0.868212 1.72369L0.868212 1.72356L0.868212 1.72344L0.868212 1.72331L0.868212 1.72319L0.868212 1.72306L0.868212 1.72294L0.868212 1.72282L0.868212 1.7227L0.868212 1.72257L0.868212 1.72245L0.868212 1.72233L0.868212 1.72221L0.868212 1.72209L0.868212 1.72197L0.868212 1.72185L0.868212 1.72174L0.868212 1.72162L0.868212 1.7215L0.868212 1.72138L0.868212 1.72127L0.868212 1.72115L0.868212 1.72104L0.868212 1.72092L0.868212 1.72081L0.868212 1.7207L0.868212 1.72059L0.868212 1.72047L0.868212 1.72036L0.868212 1.72025L0.868212 1.72014L0.868212 1.72003L0.868212 1.71992L0.868212 1.71981L0.868212 1.71971L0.868212 1.7196L0.868212 1.71949L0.868212 1.71939L0.868212 1.71928L0.868212 1.71918L0.868212 1.71907L0.868212 1.71897L0.868212 1.71887L0.868212 1.71876L0.868212 1.71866L0.868212 1.71856L0.868212 1.71846L0.868212 1.71836L0.868212 1.71826L0.868212 1.71816L0.868212 1.71806L0.868212 1.71797L0.868212 1.71787L0.868212 1.71777L0.868212 1.71768L0.868212 1.71759L0.868212 1.71749L0.868212 1.7174L0.868212 1.7173L0.868212 1.71721L0.868212 1.71712L0.868212 1.71703L0.868212 1.71694L0.868212 1.71685L0.868212 1.71676L0.868212 1.71667L0.868212 1.71659L0.868212 1.7165L0.868212 1.71641L0.868212 1.71633L0.868212 1.71624L0.868212 1.71616L0.868212 1.71608L0.868212 1.71599L0.868212 1.71591L0.868212 1.71583L0.868212 1.71575L0.868212 1.71567L0.868212 1.71559L0.868212 1.71551L0.868212 1.71544L0.868212 1.71536L0.868212 1.71528L0.868212 1.71521L0.868212 1.71513L0.868212 1.71506L0.868212 1.71499L0.868212 1.71491L0.868212 1.71484L0.868212 1.71477L0.868212 1.7147L0.868212 1.71463L0.868212 1.71456L0.868212 1.7145L0.868212 1.71443L0.868212 1.71436L0.868212 1.7143L0.868212 1.71423L0.868212 1.71417L0.868212 1.7141L0.868212 1.71404L0.868212 1.71398L0.868212 1.71392L0.868212 1.71386L0.868212 1.7138L0.868212 1.71374L0.868212 1.71368L0.868212 1.71363L0.868212 1.71357L0.868212 1.71352L0.868212 1.71346L0.868212 1.71341L0.868212 1.71335L0.868212 1.7133L0.868212 1.71325L0.868212 1.7132L0.868212 1.71315L0.868212 1.7131L0.868212 1.71306L0.868212 1.71301L0.868212 1.71296L0.868212 1.71292L0.868212 1.71287L0.868212 1.71283L0.868212 1.71279L0.868212 1.71274L0.868212 1.7127L0.868212 1.71266L0.868212 1.71262L0.868212 1.71259L0.868212 1.71255L0.868212 1.71251L0.868212 1.71248L0.868212 1.71244L0.868212 1.71241L0.868212 1.71237L0.868212 1.71234L0.868212 1.71231L0.868212 1.71228L0.868212 1.71225L0.868212 1.71222L0.868212 1.71219L0.868212 1.71216L0.868212 1.71214L0.868212 1.71211L0.868212 1.71209L0.868212 1.71207L0.868212 1.71204L0.868212 1.71202L0.868212 1.712L0.868212 1.71198L0.868212 1.71196L0.868212 1.71195L0.868212 1.71193L0.868212 1.71191L0.868212 1.7119L0.868212 1.71187L0.868212 1.71185L0.868212 1.71183L0.868212 1.71181L0.868212 1.71179L0.868212 1.21179L1.36821 1.21179L1.43977 1.21179L2.25307 1.11302L2.25573 1.11271C2.70473 1.06063 3.16353 1.00887 3.6214 0.957217C4.26047 0.885127 4.8977 0.813242 5.50388 0.740952C6.27033 0.649548 7.07065 0.600794 7.82754 0.554684C8.11316 0.537285 8.3926 0.520262 8.6617 0.501465L8.6791 0.50025L8.69654 0.50025L10.1142 0.50025L10.8049 0.50025L10.8062 0.50025L10.8075 0.50025L10.8088 0.50025L10.8101 0.50025L10.8114 0.50025L10.8128 0.50025L10.8141 0.50025L10.8154 0.50025L10.8166 0.50025L10.8179 0.50025L10.8192 0.50025L10.8205 0.50025L10.8218 0.50025L10.8231 0.50025L10.8244 0.50025L10.8256 0.50025L10.8269 0.50025L10.8282 0.50025L10.8294 0.50025L10.8307 0.50025L10.832 0.50025L10.8332 0.50025L10.8345 0.50025L10.8357 0.50025L10.837 0.50025L10.8382 0.50025L10.8395 0.50025L10.8407 0.50025L10.842 0.50025L10.8432 0.50025L10.8444 0.50025L10.8457 0.50025L10.8469 0.50025L10.8481 0.50025L10.8493 0.50025L10.8506 0.50025L10.8518 0.50025L10.853 0.50025L10.8542 0.50025L10.8554 0.50025L10.8566 0.50025L10.8578 0.50025L10.859 0.50025L10.8602 0.50025L10.8614 0.50025L10.8626 0.50025L10.8638 0.50025L10.865 0.50025L10.8662 0.50025L10.8674 0.50025L10.8685 0.50025L10.8697 0.50025L10.8709 0.50025L10.8721 0.50025L10.8732 0.50025L10.8744 0.50025L10.8756 0.50025L10.8767 0.50025L10.8779 0.50025L10.8791 0.50025L10.8802 0.50025L10.8814 0.50025L10.8825 0.50025L10.8837 0.50025L10.8848 0.50025L10.886 0.50025L10.8871 0.50025L10.8882 0.50025L10.8894 0.50025L10.8905 0.50025L10.8916 0.50025L10.8928 0.50025L10.8939 0.50025L10.895 0.50025L10.8961 0.50025L10.8973 0.50025L10.8984 0.50025L10.8995 0.50025L10.9006 0.50025L10.9017 0.50025L10.9028 0.50025L10.9039 0.50025L10.905 0.50025L10.9061 0.50025L10.9072 0.50025L10.9083 0.50025L10.9094 0.50025L10.9105 0.50025L10.9116 0.50025L10.9127 0.50025L10.9138 0.50025L10.9149 0.50025L10.916 0.50025L10.917 0.50025L10.9181 0.50025L10.9192 0.50025L10.9203 0.50025L10.9213 0.50025L10.9224 0.50025L10.9235 0.50025L10.9245 0.50025L10.9256 0.50025L10.9267 0.50025L10.9277 0.50025L10.9288 0.50025L10.9298 0.50025L10.9309 0.50025L10.9319 0.50025L10.933 0.50025L10.934 0.50025L10.9351 0.50025L10.9361 0.50025L10.9372 0.50025L10.9382 0.50025L10.9392 0.50025L10.9403 0.50025L10.9413 0.50025L10.9423 0.50025L10.9434 0.50025L10.9444 0.50025L10.9454 0.50025L10.9465 0.50025L10.9475 0.50025L10.9485 0.50025L10.9495 0.50025L10.9505 0.50025L10.9515 0.50025L10.9526 0.50025L10.9536 0.50025L10.9546 0.50025L10.9556 0.50025L10.9566 0.50025L10.9576 0.50025L10.9586 0.50025L10.9596 0.50025L10.9606 0.50025L10.9616 0.50025L10.9626 0.50025L10.9636 0.50025L10.9646 0.50025L10.9656 0.50025L10.9665 0.50025L10.9675 0.50025L10.9685 0.50025L10.9695 0.50025L10.9705 0.50025L10.9715 0.50025L10.9724 0.50025L10.9734 0.50025L10.9744 0.50025L10.9754 0.50025L10.9763 0.50025L10.9773 0.50025L10.9783 0.50025L10.9792 0.50025L10.9802 0.50025L10.9812 0.50025L10.9821 0.50025L10.9831 0.50025L10.984 0.50025L10.985 0.50025L10.986 0.50025L10.9869 0.50025L10.9879 0.50025L10.9888 0.50025L10.9898 0.50025L10.9907 0.50025L10.9917 0.50025L10.9926 0.50025L10.9935 0.50025L10.9945 0.50025L10.9954 0.50025L10.9964 0.50025L10.9973 0.50025L10.9982 0.50025L10.9992 0.50025L11.0001 0.50025L11.001 0.50025L11.002 0.50025L11.0029 0.50025L11.0038 0.50025L11.0048 0.50025L11.0057 0.50025L11.0066 0.50025L11.0075 0.50025L11.0085 0.50025L11.0094 0.50025L11.0103 0.50025L11.0112 0.50025L11.0121 0.50025L11.013 0.50025L11.014 0.50025L11.0149 0.50025L11.0158 0.50025L11.0167 0.50025L11.0176 0.50025L11.0185 0.50025L11.0194 0.50025L11.0203 0.50025L11.0212 0.50025L11.0221 0.50025L11.023 0.50025L11.0239 0.50025L11.0248 0.50025L11.0257 0.50025L11.0266 0.50025L11.0275 0.50025L11.0284 0.50025L11.0293 0.50025L11.0302 0.50025L11.0311 0.50025L11.032 0.50025L11.0329 0.50025L11.0338 0.50025L11.0346 0.50025L11.0355 0.50025L11.0364 0.50025L11.0373 0.50025L11.0382 0.50025L11.0391 0.50025L11.0399 0.50025L11.0408 0.50025L11.0417 0.50025L11.0426 0.50025L11.0435 0.50025L11.0443 0.50025L11.0452 0.50025L11.0461 0.50025L11.047 0.50025L11.0478 0.50025L11.0487 0.50025L11.0496 0.50025L11.0504 0.50025L11.0513 0.50025L11.0522 0.50025L11.0531 0.50025L11.0539 0.50025L11.0548 0.50025L11.0557 0.50025L11.0565 0.50025L11.0574 0.50025L11.0582 0.50025L11.0591 0.50025L11.06 0.50025L11.0608 0.50025L11.0617 0.50025L11.0625 0.50025L11.0634 0.50025L11.0643 0.50025L11.0651 0.50025L11.066 0.50025L11.0668 0.50025L11.0677 0.50025L11.0685 0.50025L11.0694 0.50025L11.0702 0.50025L11.0711 0.50025L11.0719 0.50025L11.0728 0.50025L11.0736 0.50025L11.0745 0.50025L11.0753 0.50025L11.0762 0.50025L11.077 0.50025L11.0779 0.50025L11.0787 0.50025L11.0796 0.50025L11.0804 0.50025L11.0813 0.50025L11.0821 0.50025L11.0829 0.50025L11.0838 0.50025L11.0846 0.50025L11.0855 0.50025L11.0863 0.50025L11.0872 0.50025L11.088 0.50025L11.0888 0.50025L11.0897 0.50025L11.0905 0.50025L11.0914 0.50025L11.0922 0.50025L11.093 0.50025L11.0939 0.50025L11.0947 0.50025L11.0955 0.50025L11.0964 0.50025L11.0972 0.50025L11.098 0.50025L11.0989 0.50025L11.0997 0.50025L11.1005 0.50025L11.1014 0.50025L11.1022 0.50025L11.103 0.50025L11.1039 0.50025L11.1047 0.50025L11.1055 0.50025L11.1064 0.50025L11.1072 0.50025L11.108 0.50025L11.1089 0.50025L11.1097 0.50025L11.1105 0.50025L11.1114 0.50025L11.1122 0.50025L11.113 0.50025L11.1139 0.50025L11.1147 0.50025L11.1155 0.50025L11.1163 0.50025L11.1172 0.50025L11.118 0.50025L11.1188 0.50025L11.1197 0.50025L11.1205 0.50025L11.1213 0.50025L11.1221 0.50025L11.123 0.50025L11.1238 0.50025L11.1246 0.50025L11.1255 0.50025L11.1263 0.50025L11.1271 0.50025L11.1279 0.50025L11.1288 0.50025L11.1296 0.50025L11.1304 0.50025L11.1312 0.50025L11.1321 0.50025L11.1329 0.50025L11.1337 0.50025L11.1346 0.50025L11.1354 0.50025L11.1362 0.50025L11.137 0.50025L11.1379 0.50025L11.1387 0.50025L11.1395 0.50025L11.1404 0.50025L11.1412 0.50025L11.142 0.50025L11.1428 0.50025L11.1437 0.50025L11.1445 0.50025L11.1453 0.50025L11.1462 0.50025L11.147 0.50025L11.1478 0.50025L11.1486 0.50025L11.1495 0.50025L11.1503 0.50025L11.1511 0.50025L11.152 0.50025L11.1528 0.50025L11.1536 0.50025L11.1545 0.50025L11.1553 0.50025L11.1561 0.50025L11.1569 0.50025L11.1578 0.50025L11.1586 0.50025L11.1594 0.50025L11.1603 0.50025L11.1611 0.50025L11.1619 0.50025L11.1628 0.50025L11.1636 0.50025L11.1644 0.50025L11.1653 0.50025L11.1661 0.50025L11.167 0.50025L11.1678 0.50025L11.1686 0.50025L11.1695 0.50025L11.1703 0.50025L11.1711 0.50025L11.172 0.50025L11.1728 0.50025L11.1737 0.50025L11.1745 0.50025L11.1753 0.50025L11.1762 0.50025L11.177 0.50025L11.1779 0.50025L11.1787 0.50025L11.1795 0.50025L11.1804 0.50025L11.1812 0.50025L11.1821 0.50025L11.1829 0.50025L11.1838 0.50025L11.1846 0.50025L11.1855 0.50025L11.1863 0.50025L11.1871 0.50025L11.188 0.50025L11.1888 0.50025L11.1897 0.50025L11.1905 0.50025L11.1914 0.50025L11.1922 0.50025L11.1931 0.50025L11.194 0.50025L11.1948 0.50025L11.1957 0.50025L11.1965 0.50025L11.1974 0.50025L11.1982 0.50025L11.1991 0.50025L11.1999 0.50025L11.2008 0.50025L11.2017 0.50025L11.2025 0.50025L11.2034 0.50025L11.2042 0.50025L11.2051 0.50025L11.206 0.50025L11.2068 0.50025L11.2077 0.50025L11.2086 0.50025L11.2094 0.50025L11.2103 0.50025L11.2112 0.50025L11.212 0.50025L11.2129 0.50025L11.2138 0.50025L11.2146 0.50025L11.2155 0.50025L11.2164 0.50025L11.2173 0.50025L11.2181 0.50025L11.219 0.50025L11.2199 0.50025L11.2208 0.50025L11.2216 0.50025L11.2225 0.50025L11.2234 0.50025L11.2243 0.50025L11.2252 0.50025L11.2261 0.50025L11.2269 0.50025L11.2278 0.50025L11.2287 0.50025L11.2296 0.50025L11.2305 0.50025L11.2314 0.50025L11.2323 0.50025L11.2332 0.50025L11.2341 0.50025L11.235 0.50025L11.2359 0.50025L11.2368 0.50025L11.2376 0.50025L11.2385 0.50025L11.2394 0.50025L11.2403 0.50025L11.2413 0.50025L11.2422 0.50025L11.2431 0.50025L11.244 0.50025L11.2449 0.50025L11.2458 0.50025L11.2467 0.50025L11.2476 0.50025L11.2485 0.50025L11.2494 0.50025L11.2503 0.50025L11.2513 0.50025L11.2522 0.50025L11.2531 0.50025L11.254 0.50025L11.2549 0.50025L11.2559 0.50025L11.2568 0.50025L11.2577 0.50025L11.2586 0.50025L11.2596 0.50025L11.2605 0.50025L11.2614 0.50025L11.2624 0.50025L11.2633 0.50025L11.2642 0.50025L11.2652 0.50025L11.2661 0.50025L11.267 0.50025L11.268 0.50025L11.2689 0.50025L11.2699 0.50025L11.2708 0.50025L11.2717 0.50025L11.2727 0.50025L11.2736 0.50025L11.2746 0.50025L11.2755 0.50025L11.2765 0.50025L11.2775 0.50025L11.2784 0.50025L11.2794 0.50025L11.2803 0.50025L11.2813 0.50025L11.2823 0.50025L11.2832 0.50025L11.2842 0.50025L11.2852 0.50025L11.2861 0.50025L11.2871 0.50025L11.2881 0.50025L11.289 0.50025L11.29 0.50025L11.291 0.50025L11.292 0.50025L11.3055 0.50025L11.3191 0.500984C11.379 0.504236 11.4389 0.507445 11.4987 0.510649C12.0249 0.538832 12.5447 0.56667 13.0357 0.621288C13.9906 0.705834 14.9352 0.84746 15.8602 1.04492ZM2.05161 2.64304C2.04751 2.64304 2.04799 2.64315 2.05184 2.64304L2.05161 2.64304ZM2.50071 2.18137C2.50099 2.17236 2.50071 2.17045 2.50071 2.18078L2.50071 2.18137Z" fill="#F7EDE2" stroke="#F7EDE2"/>
<path d="M216.938 10.0095L216.598 6.50783L216.597 6.50304L216.468 5.29184L216.467 5.28416L216.383 4.60438L215.306 4.60438L215.288 3.60472L216.895 3.54543L217.306 3.53024L217.4 3.93127L217.778 5.54844L217.778 5.54842L217.78 5.55647L217.874 5.9931L217.876 6.00053L218.007 6.65277L218.008 6.65908L218.262 8.0175L218.263 8.02033L219.295 13.7127L219.296 13.7144C219.556 15.1773 219.816 16.6895 220.075 18.2615L220.07 18.1216L221.044 17.9446C222.033 20.8927 222.137 23.4855 222.188 26.1392C222.192 26.3167 222.195 26.4945 222.198 26.6727C222.234 28.6455 222.271 30.6708 222.63 32.9583C222.667 32.947 222.706 32.939 222.75 32.9361C222.963 32.9219 223.103 33.0375 223.159 33.0957C223.255 33.1948 223.296 33.3166 223.31 33.3574L223.311 33.3595C223.351 33.4798 223.388 33.6541 223.426 33.8729L223.43 33.8993L223.432 33.9261L224.326 48.2434L224.343 48.5179L224.12 48.6794C224.009 48.7599 223.861 48.8099 223.696 48.787C223.546 48.7662 223.438 48.6928 223.372 48.6361C223.363 48.6281 223.354 48.6199 223.345 48.6115L223.812 54.9525L225.391 56.873L225.464 56.9616L225.491 57.0731C226.977 63.2239 227.133 68.1988 227.218 73.5928C227.223 73.9392 227.228 74.2874 227.233 74.6377C227.309 79.7394 227.391 85.3066 228.495 92.6942L228.506 92.7685L228.494 92.8428C228.397 93.4889 228.272 93.9857 228.089 94.2976C227.998 94.4536 227.845 94.646 227.595 94.7202C227.319 94.8021 227.082 94.6976 226.93 94.584C226.784 94.475 226.665 94.324 226.57 94.1771C226.47 94.0243 226.374 93.8436 226.282 93.6467C226.097 93.2528 225.91 92.7576 225.724 92.212C225.401 91.2648 225.067 90.1244 224.745 89.0245C224.696 88.8569 224.647 88.6902 224.598 88.5252C224.228 87.2639 223.881 86.1179 223.582 85.3896L224.255 85.1117C224.336 83.9885 224.384 82.8279 223.921 80.3867C223.917 80.3903 223.912 80.3938 223.908 80.3973C223.808 80.4768 223.657 80.538 223.481 80.5078C223.327 80.4814 223.225 80.3967 223.174 80.3451C223.12 80.2903 223.081 80.2316 223.055 80.1863C222.96 80.0211 222.874 79.7577 222.784 79.4203L222.779 79.401L222.775 79.3813C221.618 73.0304 221.34 69.2993 221.206 65.7919C221.179 65.0646 221.157 64.3485 221.135 63.6219C221.053 60.8563 220.965 57.9374 220.511 53.657C218.955 45.3947 218.084 37.069 217.904 28.727C217.877 28.0204 217.852 27.3128 217.826 26.6026C217.71 23.377 217.592 20.0987 217.395 16.6282C217.272 14.5036 217.127 12.3526 216.938 10.0136C216.938 10.0122 216.938 10.0108 216.938 10.0095ZM223.226 33.6357C223.226 33.6366 223.226 33.6376 223.226 33.6388C223.23 33.6264 223.229 33.6236 223.226 33.6357Z" fill="#F7EDE2" stroke="#F7EDE2"/>
</svg>
